{
    "label": "Domaines",
    "reference": [],
    "entries": {
        "Earth Domain": {
            "name": "Terre (Earth Domain)",
            "description": "<p>Vous contrôlez la terre et la pierre.</p>\n<p><strong>Sort de domaine</strong> <em>@UUID[Compendium.pf2e.spells-srd.Item.pRKaEXnjGJXbPHPC]{Jet de pierre}</em>; <strong>Sort de domaine avancé</strong> <em>@UUID[Compendium.pf2e.spells-srd.Item.cBUuG1yJHGeKffpg]{Séisme localisé}</em></p>\n<hr />\n<p><strong>Dieux</strong> @UUID[Compendium.pf2e.deities.Item.d56paSkcwvll2OhR]{Abadar}, @UUID[Compendium.pf2e.deities.Item.RbslST0RZPXj6Eby]{Ashukharma}, @UUID[Compendium.pf2e.deities.Item.aChBtIDfA59QQ7SN]{Ayrzul}, @UUID[Compendium.pf2e.deities.Item.eyGEoggFlTEUQmvJ]{Bès}, @UUID[Compendium.pf2e.deities.Item.vEMCpm7iidycRT5D]{Brigh}, @UUID[Compendium.pf2e.deities.Item.XHDlP7o1jNz9851v]{Diomazul}, @UUID[Compendium.pf2e.deities.Item.39z55kowQFOUH2v0]{Droskar}, @UUID[Compendium.pf2e.deities.Item.mm1j6UbHqFCI8fwB]{Érastil}, @UUID[Compendium.pf2e.deities.Item.6O4UGWcYERDEugzk]{Fumeiyoshi}, @UUID[Compendium.pf2e.deities.Item.3ffVxwgtvR1imHm8]{Gendowyn}, @UUID[Compendium.pf2e.deities.Item.VvxEvEKhCGRwrMJp]{Imbrex}, @UUID[Compendium.pf2e.deities.Item.Mv6uTJLh3VGEoGLH]{Nivi Rhomboéblouissante}, @UUID[Compendium.pf2e.deities.Item.Bhxji0kxIbMKqdkw]{Rovagug}, @UUID[Compendium.pf2e.deities.Item.1NxkZf6ndijKeufX]{Saïrazul}, @UUID[Compendium.pf2e.deities.Item.vnmoAGURp8oWCY6R]{Soralyon}, @UUID[Compendium.pf2e.deities.Item.sZrdzh0ANQnZGXJb]{Torag}, @UUID[Compendium.pf2e.deities.Item.9eltBjLngkR9x1Xm]{Trelmarixian}, @UUID[Compendium.pf2e.deities.Item.tb0oADxOoMhyrYRA]{Yamatsumi}, @UUID[Compendium.pf2e.deities.Item.uYpxTi4byHc5w78R]{Yuelral}</p>"
        },
        "Ambition Domain": {
            "name": "Ambition (Ambition Domain)",
            "description": "<p>Vous essayez de rester dans la compétition et de devancer tous les autres.</p>\n<p><strong>Sort de domaine</strong> <em>@UUID[Compendium.pf2e.spells-srd.Item.Dj44lViYKvOJ8a53]{Ambition aveugle}</em>; <strong>Sort de domaine avancé</strong> <em>@UUID[Compendium.pf2e.spells-srd.Item.NOB92Wpn7jXvtyVW]{Avantage du compétiteur}</em></p>\n<hr />\n<p><strong>Dieux</strong> @UUID[Compendium.pf2e.deities.Item.9WD0hbUT0IbnuTiM]{Baalzébul}, @UUID[Compendium.pf2e.deities.Item.soiVh53y9RAeSLEk]{Casandalee}, @UUID[Compendium.pf2e.deities.Item.aVyxfqY9GBjTqQul]{Eiseth}, @UUID[Compendium.pf2e.deities.Item.6O4UGWcYERDEugzk]{Fumeiyoshi}, @UUID[Compendium.pf2e.deities.Item.zlJGKpeLBwajP91o]{Gyronna}, @UUID[Compendium.pf2e.deities.Item.sNjPI1iaS8Z43YJf]{Mammon}, @UUID[Compendium.pf2e.deities.Item.1nQVLOyWv5kC0bCU]{Ravithra}, @UUID[Compendium.pf2e.deities.Item.zzhYFcShT9JoE2Mp]{Shax}, @UUID[Compendium.pf2e.deities.Item.rDTXcBJ8LyqA2TkL]{Szuriel}, @UUID[Compendium.pf2e.deities.Item.PFp4Sdp2TDDKD62l]{Thamir}, @UUID[Compendium.pf2e.deities.Item.4bEPoujxhYdUyUOg]{Ydersius}, @UUID[Compendium.pf2e.deities.Item.SCGdJmm7Wzle9jFP]{Zohls}, @UUID[Compendium.pf2e.deities.Item.ZfN7jkK6boU1FuiS]{Zon-Kuthon}</p>"
        },
        "Toil Domain": {
            "name": "Labeur (Toil Domain)",
            "description": "<p>Vous travaillez sans relâche et vous refusez de laisser quoi que ce soit se mettre sur votre chemin.</p>\n<p><strong>Sort de domaine</strong> <em>@UUID[Compendium.pf2e.spells-srd.Item.HOj2YsTpkoMpYJH9]{En forgeant on devient forgeron}</em>; <strong>Sort de domaine avancé</strong> <em>@UUID[Compendium.pf2e.spells-srd.Item.gzvRDpM6EvcfYHeu]{Travailleur infatigable}</em></p>\n<hr />\n<p><strong>Dieux</strong> @UUID[Compendium.pf2e.deities.Item.OlVCyRgOaPJji4qt]{Chohar}, @UUID[Compendium.pf2e.deities.Item.39z55kowQFOUH2v0]{Droskar}, @UUID[Compendium.pf2e.deities.Item.w66gCNiZ7dslqG8K]{Lissala}, @UUID[Compendium.pf2e.deities.Item.sNjPI1iaS8Z43YJf]{Mammon}, @UUID[Compendium.pf2e.deities.Item.1NxkZf6ndijKeufX]{Saïrazul}, @UUID[Compendium.pf2e.deities.Item.VG51y4FbTLdeGHZB]{Le chemin de cieux}</p>"
        },
        "Fate Domain": {
            "name": "Destin (Fate Domain)",
            "description": "<p>Vous voyez et comprenez la fatalité cachée.</p>\n<p><strong>Sort de domaine</strong> <em>@UUID[Compendium.pf2e.spells-srd.Item.Vvxgn7saUPW2bJhb]{Lire le destin}</em>; <strong>Sort de domaine avancé</strong> <em>@UUID[Compendium.pf2e.spells-srd.Item.GqvKSxzN7A7kuFk4]{Tenter le sort}</em></p>\n<hr />\n<p><strong>Dieux</strong> @UUID[Compendium.pf2e.deities.Item.Xb1N5YfxboJH26Jh]{Angradd}, @UUID[Compendium.pf2e.deities.Item.oV5cnlPJQS8JfMIg]{Caravane cosmique}, @UUID[Compendium.pf2e.deities.Item.Dm8qlzpUj7g82QFv]{Érécura}, @UUID[Compendium.pf2e.deities.Item.xxUGdZYUj5IW7E0L]{Fidèles du destin}, @UUID[Compendium.pf2e.deities.Item.fuPTR1laXO6EionS]{Grand-mère araignée}, @UUID[Compendium.pf2e.deities.Item.KIEgpcmHYtFu1dpg]{Imot}, @UUID[Compendium.pf2e.deities.Item.lSciGZGcbU9PJxQy]{Irèz}, @UUID[Compendium.pf2e.deities.Item.w66gCNiZ7dslqG8K]{Lissala}, @UUID[Compendium.pf2e.deities.Item.ub0PJ5QkrdoGzzb2]{Luhar}, @UUID[Compendium.pf2e.deities.Item.SCMlQDcoU1QcF3AS]{Lysianassa}, @UUID[Compendium.pf2e.deities.Item.iMRXc519Uepf8yH3]{Magdh}, @UUID[Compendium.pf2e.deities.Item.nsiDGdgbAzkTQzOt]{Magrim}, @UUID[Compendium.pf2e.deities.Item.Af4TSJjutVi9Vdwi]{Mahathallah}, @UUID[Compendium.pf2e.deities.Item.JgDqFUB1NtQkGmzp]{Otolmens}, @UUID[Compendium.pf2e.deities.Item.QZD0u1jxwz0kj8uI]{Pharasma}, @UUID[Compendium.pf2e.deities.Item.1nQVLOyWv5kC0bCU]{Ravithra}, @UUID[Compendium.pf2e.deities.Item.3INt1X4ijBYnZYbU]{Shyka}, @UUID[Compendium.pf2e.deities.Item.9FWBJcADLEeP8Krf]{Valmallos}</p>"
        },
        "Glyph Domain": {
            "name": "Glyphes (Glyph Domain)",
            "description": "<p>Vous maniez le pouvoir des mots écrits et des symboles.</p>\n<p><strong>Sort de domaine</strong> <em>@UUID[Compendium.pf2e.spells-srd.Item.ifXNOhtmU4fKL68v]{Corriger}</em>; <strong>Sort de domaine avancé</strong>@UUID[Compendium.pf2e.spells-srds-srd.vhe9DduqaivMs8FV]{Transcription fantomatique}</em></p>\n<hr />\n<p><strong>Dieux</strong> @UUID[Compendium.pf2e.deities.Item.QRkcFciCOmFoxF1B]{Asmodéus}, @UUID[Compendium.pf2e.deities.Item.xu05XGotyT5st56H]{Dame Jingxi}, @UUID[Compendium.pf2e.deities.Item.8DXel4AvpyUy6oJ0]{Éritrice}, @UUID[Compendium.pf2e.deities.Item.tcvobm8O84qv0aO5]{Gruhastha}, @UUID[Compendium.pf2e.deities.Item.WvoMr86bSSYxXKtI]{Hastur}, @UUID[Compendium.pf2e.deities.Item.KIEgpcmHYtFu1dpg]{Imot}, @UUID[Compendium.pf2e.deities.Item.lSciGZGcbU9PJxQy]{Irèz}, @UUID[Compendium.pf2e.deities.Item.w66gCNiZ7dslqG8K]{Lissala}, @UUID[Compendium.pf2e.deities.Item.iMRXc519Uepf8yH3]{Magdh}, @UUID[Compendium.pf2e.deities.Item.nsiDGdgbAzkTQzOt]{Magrim}, @UUID[Compendium.pf2e.deities.Item.KWVdoAm3b01M8Lcp]{Méphistophèles}, @UUID[Compendium.pf2e.deities.Item.gsFaxWHbZmc1moY6]{Nalinivati}, @UUID[Compendium.pf2e.deities.Item.9EKyWmjLUu42evxC]{Néthys}, @UUID[Compendium.pf2e.deities.Item.WO9UsCY41oTtC2G0]{Pilliers de la Connaissance}, @UUID[Compendium.pf2e.deities.Item.iJyhAFmHOLZBvWnJ]{Sivanah}, @UUID[Compendium.pf2e.deities.Item.aievwuZalZ2abs2q]{Thoth}, @UUID[Compendium.pf2e.deities.Item.9FWBJcADLEeP8Krf]{Valmallos}, @UUID[Compendium.pf2e.deities.Item.ZynnoQJFz12FD0Xn]{Protection du pharaon}, @UUID[Compendium.pf2e.deities.Item.8wOAwLMgB1HFLo9n]{Winlas}, @UUID[Compendium.pf2e.deities.Item.iEt6idGIEPXY2HzV]{Ydajisk}</p>"
        },
        "Time Domain": {
            "name": "Temps (Time Domain)",
            "description": "<p>Vous régnez sur le flux du temps.</p>\n<p><strong>Sort de domaine</strong> <em>@UUID[Compendium.pf2e.spells-srd.Item.3wmX7htzOXiHLdAn]{Conséquence retardée}</em>; <strong>Sort de domaine avancé</strong> <em>@UUID[Compendium.pf2e.spells-srd.Item.cOwSsSXRsBaXUvlr]{Stase}</em></p>\n<hr />\n<p><strong>Dieux</strong> @UUID[Compendium.pf2e.deities.Item.9n2CI0B3EA4y3BuU]{Alséta}, @UUID[Compendium.pf2e.deities.Item.vEMCpm7iidycRT5D]{Brigh}, @UUID[Compendium.pf2e.deities.Item.QZD0u1jxwz0kj8uI]{Pharasma}, @UUID[Compendium.pf2e.deities.Item.WO9UsCY41oTtC2G0]{Piliers de la connaissance}, @UUID[Compendium.pf2e.deities.Item.woDEgBs1MznhzpJ4]{Râ}, @UUID[Compendium.pf2e.deities.Item.3INt1X4ijBYnZYbU]{Shyka}, @UUID[Compendium.pf2e.deities.Item.SUaGdvQXxSAQAw03]{Yog-Sothoth}</p>"
        },
        "Plague Domain": {
            "name": "Fléau (Plague Domain)",
            "description": "<p>Vous maniez la maladie et la pestilence comme une arme.<p>\n<p><strong>Sort de domaine</strong> <em>@UUID[Compendium.pf2e.spells-srd.Item.NkeLctXo9FLGnDhi]{Plaies divines}</em>; <strong>Sort de domaine avancé</strong> <em>@UUID[Compendium.pf2e.spells-srd.Item.6nTBr5XNuKOuPM5m]{Miasmes infâmes}</em></p>\n<hr />\n<p><strong>Dieux</strong> @UUID[Compendium.pf2e.deities.Item.oJPwMa9xG8oMnC14]{Apollyon}, @UUID[Compendium.pf2e.deities.Item.gXHoxuuiAD54LnWV]{Cyth-V'sug}, @UUID[Compendium.pf2e.deities.Item.oRvuLq3o2FxXizt9]{Ghlaunder}, @UUID[Compendium.pf2e.deities.Item.r6SFB1PzKsagDXff]{Dame Nanbyo}</p>"
        },
        "Delirium Domain": {
            "name": "Délirium (Delirium Domain)",
            "description": "<p>Vous pouvez causer des hallucinations et de la fébrilité.</p>\n<p><strong>Sort de domaine</strong> <em>@UUID[Compendium.pf2e.spells-srd.Item.XhgMx9WC6NfXd9RP]{Hyperacuité}</em>; <strong>Sort de domaine avancé</strong> <em>@UUID[Compendium.pf2e.spells-srd.Item.HisaZTk67YAxLGBq]{Dangers éphémères}</em></p>\n<hr />\n<p><strong>Dieux</strong> @UUID[Compendium.pf2e.deities.Item.65o189p2eUPbqaDK]{Narriseminek}, @UUID[Compendium.pf2e.deities.Item.8Oy4qHylOOp79JxD]{Nhimbaloth}, @UUID[Compendium.pf2e.deities.Item.3INt1X4ijBYnZYbU]{Shyka}, @UUID[Compendium.pf2e.deities.Item.iJyhAFmHOLZBvWnJ]{Sivanah}, @UUID[Compendium.pf2e.deities.Item.nuqIimigyt986WLE]{Le roi lanterne}, @UUID[Compendium.pf2e.deities.Item.aTYy1WHwAZiuei4h]{Tsukiyo}, @UUID[Compendium.pf2e.deities.Item.8ZSywyo8YQPduo92]{Zura}</p>"
        },
        "Cities Domain": {
            "name": "Villes (Cities Domain)",
            "description": "<p>Vous exercez votre pouvoir sur l'environnement urbain et ses habitants.</p>\n<p><strong>Sort de domaine</strong> <em>@UUID[Compendium.pf2e.spells-srd.Item.yH13KXUK2x093NUv]{Fondu dans la foule}</em>; <strong>Sort de domaine avancé</strong> <em>@UUID[Compendium.pf2e.spells-srd.Item.ivKnEtI1z4UqEKIA]{Pouls de la ville}</em></p>\n<hr />\n<p><strong>Dieux</strong> @UUID[Compendium.pf2e.deities.Item.d56paSkcwvll2OhR]{Abadar}, @UUID[Compendium.pf2e.deities.Item.v67fHklTZ6LoU54q]{Cayden Cailéan}, @UUID[Compendium.pf2e.deities.Item.OlVCyRgOaPJji4qt]{Chohar}, @UUID[Compendium.pf2e.deities.Item.CzHjFLx4hpIEIoWt]{Dispater}, @UUID[Compendium.pf2e.deities.Item.liXIbl7y8www2eAn]{Findeladlara}, @UUID[Compendium.pf2e.deities.Item.VEyowuhC4FsBnG8c]{Folgrit}, @UUID[Compendium.pf2e.deities.Item.iXvyp9rGnqvFfy4q]{Kazutal}, @UUID[Compendium.pf2e.deities.Item.ub0PJ5QkrdoGzzb2]{Luhar}, @UUID[Compendium.pf2e.deities.Item.hWTTS0e7J9hJfsp3]{Matravash}, @UUID[Compendium.pf2e.deities.Item.0R2BjVb7d9tYCIbk]{Tléhar}, @UUID[Compendium.pf2e.deities.Item.SCGdJmm7Wzle9jFP]{Zohls}</p>"
        },
        "Air Domain": {
            "name": "Air (Air Domain)",
            "description": "<p>Vous contrôlez les vents et la météorologie.</p>\n<p><strong>Sort de domaine</strong><em>@UUID[Compendium.pf2e.spells-srd.Item.myC2EIrsjmB8xosi]{Bourrasque agressive}</em>;<strong>Sort de domaine avancé</strong><em>@UUID[Compendium.pf2e.spells-srd.Item.L8pzCOi7Jzx5ALs9]{Disparition dans les airs}</em></p>\n<hr />\n<p><strong>Dieux</strong> @UUID[Compendium.pf2e.deities.Item.oJPwMa9xG8oMnC14]{Apollyon}, @UUID[Compendium.pf2e.deities.Item.9WD0hbUT0IbnuTiM]{Baalzébul}, @UUID[Compendium.pf2e.deities.Item.oRvuLq3o2FxXizt9]{Ghlaunder}, @UUID[Compendium.pf2e.deities.Item.swwwP7eVmlNuWTb7]{Gozreh},@UUID[Compendium.pf2e.deities.Item.DEKKbg6riAdL2ARf]{Hei Feng},@UUID[Compendium.pf2e.deities.Item.rRuxBgC58PxrLzRv]{Horus},@UUID[Compendium.pf2e.deities.Item.A37XqON6QRPzQhp7]{Hshurha},@UUID[Compendium.pf2e.deities.Item.IZcdF1G8ZsnMotaM]{Pazuzu},@UUID[Compendium.pf2e.deities.Item.o9tK1T28LNEVzpFV]{Ragdya},@UUID[Compendium.pf2e.deities.Item.Ij1KRM8ufkEjGnR3]{Ranginori},@UUID[Compendium.pf2e.deities.Item.Bhxji0kxIbMKqdkw]{Rovagug},@UUID[Compendium.pf2e.deities.Item.97Qe42wJN5EVUS14]{Sturovenen},@UUID[Compendium.pf2e.deities.Item.YXmeBdOZfWgUljW1]{Ylimancha}</p>"
        },
        "Nature Domain": {
            "name": "Nature (Nature Domain)",
            "description": "<p>Vous exercez votre pouvoir sur les animaux et les plantes.</p>\n<p><strong>Sort de domaine</strong> <em>@UUID[Compendium.pf2e.spells-srd.Item.nnSipUPNd3sm5vYL]{Épines florissantes}</em>; <strong>Sort de domaine avancé</strong> <em>@UUID[Compendium.pf2e.spells-srd.Item.vSSKyUdrHu86E5Gk]{Générosité naturelle}</em></p>\n<hr />\n<p><strong>Dieux</strong> @UUID[Compendium.pf2e.deities.Item.cHAbE86pto5bvIWo]{Angazhan}, @UUID[Compendium.pf2e.deities.Item.jrPmEfubRDzMKbxl]{Arundhat}, @UUID[Compendium.pf2e.deities.Item.oiEo6tDP3gICHtfZ]{Barbatos}, @UUID[Compendium.pf2e.deities.Item.zRmAXj7FSlrMfDeA]{Bastet}, @UUID[Compendium.pf2e.deities.Item.EE8sNM4JraOPN669]{Cernunnos}, @UUID[Compendium.pf2e.deities.Item.yiKle2URZ43KYVKQ]{Chamidu}, @UUID[Compendium.pf2e.deities.Item.gXHoxuuiAD54LnWV]{Cyth-V'sug}, @UUID[Compendium.pf2e.deities.Item.M3eb94Nd6uXti2IK]{Daikitsu}, @UUID[Compendium.pf2e.deities.Item.Zw8nhcpRxinoYRSa]{Panthéon elfique}, @UUID[Compendium.pf2e.deities.Item.mm1j6UbHqFCI8fwB]{Érastil}, @UUID[Compendium.pf2e.deities.Item.3ffVxwgtvR1imHm8]{Gendowyn}, @UUID[Compendium.pf2e.deities.Item.swwwP7eVmlNuWTb7]{Gozreh}, @UUID[Compendium.pf2e.deities.Item.McUqN13BGLTpYWCg]{Homme vert}, @UUID[Compendium.pf2e.deities.Item.tcvobm8O84qv0aO5]{Gruhastha}, @UUID[Compendium.pf2e.deities.Item.K1tzUClsozKcdpIe]{Halcamora}, @UUID[Compendium.pf2e.deities.Item.aLCfEgt48SRUHnMC]{Jaidz}, @UUID[Compendium.pf2e.deities.Item.wjXNXFWBLbJaeZQR]{Kétéphys}, @UUID[Compendium.pf2e.deities.Item.ItYptsfjV8XvfhOV]{Lahkgya}, @UUID[Compendium.pf2e.deities.Item.SCMlQDcoU1QcF3AS]{Lysianassa}, @UUID[Compendium.pf2e.deities.Item.hWTTS0e7J9hJfsp3]{Matravash}, @UUID[Compendium.pf2e.deities.Item.E1dUhoSEf2XfklU2]{Mère Vautour}, @UUID[Compendium.pf2e.deities.Item.8Oy4qHylOOp79JxD]{Nhimbaloth}, @UUID[Compendium.pf2e.deities.Item.nuvfUC4TcOvFbKxx]{Osiris}, @UUID[Compendium.pf2e.deities.Item.woDEgBs1MznhzpJ4]{Râ}, @UUID[Compendium.pf2e.deities.Item.xTD0XFaguBX6QQ2L]{Selket}, @UUID[Compendium.pf2e.deities.Item.fTs56epghXwclPcX]{Mère Élaphe de la Forêt de pierres}, @UUID[Compendium.pf2e.deities.Item.BLNXYqvzmLgjMq2p]{Sun Wukong}, @UUID[Compendium.pf2e.deities.Item.DFxbPmQLOqcmbPTz]{Tanagaar}, @UUID[Compendium.pf2e.deities.Item.pVQzTL5elNTxvffu]{La mère verte}, @UUID[Compendium.pf2e.deities.Item.ENzMYuzBZGIujSMx]{Fléau des arbres}, @UUID[Compendium.pf2e.deities.Item.mebdNVKeKuTmDDHj]{Xhamen-Dor}, @UUID[Compendium.pf2e.deities.Item.YXmeBdOZfWgUljW1]{Ylimancha}, @UUID[Compendium.pf2e.deities.Item.8roijlQ03l9rWFFe]{Zevgavizeb}</p>"
        },
        "Wyrmkin Domain": {
            "name": "Parenté dracosire (Wyrmkin Domain)",
            "description": "<p>Vous en appelez au pouvoir des dragons, des linnorms et d'autres puissantes créatures reptiliennes.</p>\n<p><strong>Sort de domaine</strong> <em>@UUID[Compendium.pf2e.spells-srd.Item.S6Kkk15MWGqzC00a]{Barrage draconique}</em>; <strong>Sort de domaine avancé</strong> <em>@UUID[Compendium.pf2e.spells-srd.Item.FSu6ZKxr3xdS75wq]{Rugissement du Ver}</em></p>\n<hr />\n<p><strong>Dieux</strong> @UUID[Compendium.pf2e.deities.Item.bLI1JMpI2GXQT5AC]{Abraxas}, @UUID[Compendium.pf2e.deities.Item.o8ayCv3LAHWlu0vQ]{Apsu}, @UUID[Compendium.pf2e.deities.Item.uydTiyN5AzhBnQY8]{Ardad Lili}, @UUID[Compendium.pf2e.deities.Item.Bzfc5mIUfMxOnQWu]{Dahak}, @UUID[Compendium.pf2e.deities.Item.WOiSJ4IWjaRsSgRO]{Géryon}, @UUID[Compendium.pf2e.deities.Item.gsFaxWHbZmc1moY6]{Nalinivati}, @UUID[Compendium.pf2e.deities.Item.XYJupIPx0GW4s7eu]{Ragadahn}, @UUID[Compendium.pf2e.deities.Item.TvxsVRztDlGcWpcI]{Sobek}, @UUID[Compendium.pf2e.deities.Item.8roijlQ03l9rWFFe]{Zevgavizeb}</p>"
        },
        "Change Domain": {
            "name": "Changement (Change Domain)",
            "description": "<p>Vous pouvez modifier la structure des objets tant physiques que métaphysiques.</p>\n<p><strong>Sort de domaine</strong> <em>@UUID[Compendium.pf2e.spells-srd.Item.GUnw9YXaW3YyaCAU]{Auto-adaptation}</em>; <strong>Domaine de sort avancé</strong> <em>@UUID[Compendium.pf2e.spells-srd.Item.GoKkejPj5yWJPIPK]{Dissonnance adaptative}</em></p>\n<hr />\n<p><strong>Dieux</strong> @UUID[Compendium.pf2e.deities.Item.9n2CI0B3EA4y3BuU]{Alséta}, @UUID[Compendium.pf2e.deities.Item.remyY1BwhEVmBwya]{Bélial}, @UUID[Compendium.pf2e.deities.Item.gXHoxuuiAD54LnWV]{Cyth-V'sug}, @UUID[Compendium.pf2e.deities.Item.AHX89nhuVhmg8k6w]{Dagon}, @UUID[Compendium.pf2e.deities.Item.M3eb94Nd6uXti2IK]{Daikitsu}, @UUID[Compendium.pf2e.deities.Item.fuPTR1laXO6EionS]{Grand-mère araignée}, @UUID[Compendium.pf2e.deities.Item.qqqrbq4uCrelQvgH]{Irori}, @UUID[Compendium.pf2e.deities.Item.5ZIvg8CkqRMepVcX]{Korada}, @UUID[Compendium.pf2e.deities.Item.aipkJQxP4GBsTaGq]{Lamashtu}, @UUID[Compendium.pf2e.deities.Item.QibpLccM5bLUMopj]{Lymniéris}, @UUID[Compendium.pf2e.deities.Item.fTJLgTfEMZreJ19r]{Milani}, @UUID[Compendium.pf2e.deities.Item.E1dUhoSEf2XfklU2]{Mère Vautour}, @UUID[Compendium.pf2e.deities.Item.hhV2g6aU8jKLEca1]{Narakaas}, @UUID[Compendium.pf2e.deities.Item.jL1qiVOZBKXETtVD]{Nocticula}, @UUID[Compendium.pf2e.deities.Item.nuvfUC4TcOvFbKxx]{Osiris}, @UUID[Compendium.pf2e.deities.Item.1xHnoMlCyCV70TnT]{Saloc}, @UUID[Compendium.pf2e.deities.Item.nuqIimigyt986WLE]{Le roi lanterne}, @UUID[Compendium.pf2e.deities.Item.0R2BjVb7d9tYCIbk]{Tléhar}, @UUID[Compendium.pf2e.deities.Item.aTYy1WHwAZiuei4h]{Tsukiyo}, @UUID[Compendium.pf2e.deities.Item.mebdNVKeKuTmDDHj]{Xhamen-Dor}, @UUID[Compendium.pf2e.deities.Item.iEt6idGIEPXY2HzV]{Ydajisk}</p>"
        },
        "Family Domain": {
            "name": "Famille (Family Domain)",
            "description": "<p>Vous aidez et protégez votre famille et votre communauté plus efficacement.</p>\n<p><strong>Sort de Domaine</strong> <em>@UUID[Compendium.pf2e.spells-srd.Item.YGRpHU5yxw73mls8]{Paroles apaisantes}</em>; <strong>Sort de Domaine avancé</strong> <em>@UUID[Compendium.pf2e.spells-srd.Item.tYLBjOTvBVn9JtRb]{Unité}</em></p>\n<hr />\n<p><strong>Dieux</strong> @UUID[Compendium.pf2e.deities.Item.CDkr6eXR1lgu7g6A]{Andoletta}, @UUID[Compendium.pf2e.deities.Item.eyGEoggFlTEUQmvJ]{Bès}, @UUID[Compendium.pf2e.deities.Item.HD7g8T8ioy1EH3M8]{Bolka}, @UUID[Compendium.pf2e.deities.Item.OlVCyRgOaPJji4qt]{Chohar}, @UUID[Compendium.pf2e.deities.Item.M3eb94Nd6uXti2IK]{Daikitsu}, @UUID[Compendium.pf2e.deities.Item.mm1j6UbHqFCI8fwB]{Érastil}, @UUID[Compendium.pf2e.deities.Item.liXIbl7y8www2eAn]{Findeladlara}, @UUID[Compendium.pf2e.deities.Item.xxUGdZYUj5IW7E0L]{Fidèles du destin}, @UUID[Compendium.pf2e.deities.Item.VEyowuhC4FsBnG8c]{Folgrit}, @UUID[Compendium.pf2e.deities.Item.3ffVxwgtvR1imHm8]{Gendowyn}, @UUID[Compendium.pf2e.deities.Item.fuPTR1laXO6EionS]{Grand-mère araignée}, @UUID[Compendium.pf2e.deities.Item.tk7gRxXsqvBwQrUF]{Grundinnar}, @UUID[Compendium.pf2e.deities.Item.TpAMy8tb5LrRgvqN]{Hathor}, @UUID[Compendium.pf2e.deities.Item.VvxEvEKhCGRwrMJp]{Imbrex}, @UUID[Compendium.pf2e.deities.Item.EFyDjlH7XjGq7Erd]{Isis}, @UUID[Compendium.pf2e.deities.Item.aLCfEgt48SRUHnMC]{Jaïdi}, @UUID[Compendium.pf2e.deities.Item.iXvyp9rGnqvFfy4q]{Kazutal}, @UUID[Compendium.pf2e.deities.Item.aipkJQxP4GBsTaGq]{Lamashtu}, @UUID[Compendium.pf2e.deities.Item.6nq25AjImkT5GxDT]{Le rayon prismatique}, @UUID[Compendium.pf2e.deities.Item.fTs56epghXwclPcX]{Mère Élaphe de la Forêt de pierres}, @UUID[Compendium.pf2e.deities.Item.Mv6uTJLh3VGEoGLH]{Nivi Rhomboéblouissante}, @UUID[Compendium.pf2e.deities.Item.6mgCX7lvKtaEYoa9]{Panthéon nain}, @UUID[Compendium.pf2e.deities.Item.ZynnoQJFz12FD0Xn]{Protection du pharaon}, @UUID[Compendium.pf2e.deities.Item.1NxkZf6ndijKeufX]{Saïrazul}, @UUID[Compendium.pf2e.deities.Item.ra7mnjAZcEuJxI37]{Shei}, @UUID[Compendium.pf2e.deities.Item.gxwmzxUWBOhdgFSN]{Shélyn}, @UUID[Compendium.pf2e.deities.Item.sZrdzh0ANQnZGXJb]{Torag}, @UUID[Compendium.pf2e.deities.Item.g1AVEGi8QibhS007]{Walkena}</p>"
        },
        "Magic Domain": {
            "name": "Magie (Magic Domain)",
            "description": "<p>Vous accomplissez l'inattendu et l'inexplicable.</p>\n<p><strong>Sort de domaine</strong> <em>@UUID[Compendium.pf2e.spells-srd.Item.u4FGIUQgruLjml7J]{Réceptacle magique}</em>; <strong>Sort de domaine avancé</strong> <em>@UUID[Compendium.pf2e.spells-srd.Item.2SYq0ZTsOtJEigFx]{Phare mystique}</em></p>\n<hr />\n<p><strong>Dieux</strong> @UUID[Compendium.pf2e.deities.Item.bLI1JMpI2GXQT5AC]{Abraxas}, @UUID[Compendium.pf2e.deities.Item.9n2CI0B3EA4y3BuU]{Alséta}, @UUID[Compendium.pf2e.deities.Item.jrPmEfubRDzMKbxl]{Arundhat}, @UUID[Compendium.pf2e.deities.Item.9WD0hbUT0IbnuTiM]{Baalzébul}, @UUID[Compendium.pf2e.deities.Item.oiEo6tDP3gICHtfZ]{Barbatos}, @UUID[Compendium.pf2e.deities.Item.Zw8nhcpRxinoYRSa]{Panthéon elfique}, @UUID[Compendium.pf2e.deities.Item.lSciGZGcbU9PJxQy]{Irèz}, @UUID[Compendium.pf2e.deities.Item.EFyDjlH7XjGq7Erd]{Isis}, @UUID[Compendium.pf2e.deities.Item.5ZIvg8CkqRMepVcX]{Korada}, @UUID[Compendium.pf2e.deities.Item.w66gCNiZ7dslqG8K]{Lissala}, @UUID[Compendium.pf2e.deities.Item.gsFaxWHbZmc1moY6]{Nalinivati}, @UUID[Compendium.pf2e.deities.Item.9EKyWmjLUu42evxC]{Néthys}, @UUID[Compendium.pf2e.deities.Item.RzTd9PmgnfHNlFVf]{Ng}, @UUID[Compendium.pf2e.deities.Item.3nxIpMGeCvcBIVov]{Nyarlathotep (Le chaos rampant)}, @UUID[Compendium.pf2e.deities.Item.giAsBYiL2omr0x2L]{Qi Zhong}, @UUID[Compendium.pf2e.deities.Item.xTD0XFaguBX6QQ2L]{Selket}, @UUID[Compendium.pf2e.deities.Item.iJyhAFmHOLZBvWnJ]{Sivanah}, @UUID[Compendium.pf2e.deities.Item.vnmoAGURp8oWCY6R]{Soralyon}, @UUID[Compendium.pf2e.deities.Item.22n3N47sqbqbDxbp]{Urgathoa}, @UUID[Compendium.pf2e.deities.Item.9FWBJcADLEeP8Krf]{Valmallos}, @UUID[Compendium.pf2e.deities.Item.ZynnoQJFz12FD0Xn]{Protection du pharaon}, @UUID[Compendium.pf2e.deities.Item.uYpxTi4byHc5w78R]{Yuelral}</p>"
        },
        "Nightmares Domain": {
            "name": "Cauchemars (Nightmares Domain)",
            "description": "<p>Vous remplissez les esprits d'horreur et d'effroi.</p>\n<p><strong>Sort de domaine</strong> <em>@UUID[Compendium.pf2e.spells-srd.Item.DU5daB09xwfE1y38]{Cauchemar éveillé}</em>; <strong>Sort de domaine avancé</strong> <em>@UUID[Compendium.pf2e.spells-srd.Item.skvgOWNTitLehL0b]{Cauchemar partagé}</em></p>\n<hr />\n<p><strong>Dieux</strong> @UUID[Compendium.pf2e.deities.Item.sILda7I8Ak20Ioj9]{Azathoth}, @UUID[Compendium.pf2e.deities.Item.yiKle2URZ43KYVKQ]{Chamidu}, @UUID[Compendium.pf2e.deities.Item.WloVxo6HXJdS4YTt]{Groétus}, @UUID[Compendium.pf2e.deities.Item.zlJGKpeLBwajP91o]{Gyronna}, @UUID[Compendium.pf2e.deities.Item.bF77ydtptI54STl9]{Jaidz}, @UUID[Compendium.pf2e.deities.Item.14GLsVobnZTEmJrs]{Kélizandre}, @UUID[Compendium.pf2e.deities.Item.aipkJQxP4GBsTaGq]{Lamashtu}, @UUID[Compendium.pf2e.deities.Item.iKgERiIc8rt3fatf]{Nyarlathotep (Celui qui hante les ténèbres)}, @UUID[Compendium.pf2e.deities.Item.3nxIpMGeCvcBIVov]{Nyarlathotep (Le chaos rampant)}, @UUID[Compendium.pf2e.deities.Item.BrbXGyzCeORNyJT5]{Sifkesh}, @UUID[Compendium.pf2e.deities.Item.ENzMYuzBZGIujSMx]{Fléau des arbres}, @UUID[Compendium.pf2e.deities.Item.9eltBjLngkR9x1Xm]{Trelmarixian}, @UUID[Compendium.pf2e.deities.Item.8ZSywyo8YQPduo92]{Zura}</p>"
        },
        "Truth Domain": {
            "name": "Vérité (Truth Domain)",
            "description": "<p>Vous décelez les mensonges et découvrez la vérité.</p>\n<p><strong>Sort de domaine</strong> <em>@UUID[Compendium.pf2e.spells-srd.Item.aF7RiG7c8GzSQLYt]{Mot de vérité}</em>; <strong>Sort de domaine avancé</strong> <em>@UUID[Compendium.pf2e.spells-srd.Item.ZjbVgIIqMstmdkqP]{Entrevoir la vérité}</em></p>\n<hr />\n<p><strong>Dieux</strong> @UUID[Compendium.pf2e.deities.Item.H1VrZ1QX0d2aPXT8]{Dammerich}, @UUID[Compendium.pf2e.deities.Item.Dm8qlzpUj7g82QFv]{Érécura}, @UUID[Compendium.pf2e.deities.Item.xxUGdZYUj5IW7E0L]{Fidèles du destin}, @UUID[Compendium.pf2e.deities.Item.WOiSJ4IWjaRsSgRO]{Géryon}, @UUID[Compendium.pf2e.deities.Item.tcvobm8O84qv0aO5]{Gruhastha}, @UUID[Compendium.pf2e.deities.Item.eErEiVmBqltYXFJ6]{Iomédae}, @UUID[Compendium.pf2e.deities.Item.qqqrbq4uCrelQvgH]{Irori}, @UUID[Compendium.pf2e.deities.Item.zhPhYge7VJbIlJvA]{Kols}, @UUID[Compendium.pf2e.deities.Item.r5vooG7NfvA9prJK]{Kurgess}, @UUID[Compendium.pf2e.deities.Item.ArmPZQrl0SFAKvrY]{Maât}, @UUID[Compendium.pf2e.deities.Item.iMRXc519Uepf8yH3]{Magdh}, @UUID[Compendium.pf2e.deities.Item.Af4TSJjutVi9Vdwi]{Mahathallah}, @UUID[Compendium.pf2e.deities.Item.W4QGkdn9V5ACRpkh]{La Monade}, @UUID[Compendium.pf2e.deities.Item.WO9UsCY41oTtC2G0]{Piliers de la connaissance}, @UUID[Compendium.pf2e.deities.Item.1nQVLOyWv5kC0bCU]{Ravithra}, @UUID[Compendium.pf2e.deities.Item.BNycwu3I21dTh4D9]{Sarenrae}, @UUID[Compendium.pf2e.deities.Item.SCGdJmm7Wzle9jFP]{Zohls}</p>"
        },
        "Indulgence Domain": {
            "name": "Petits plaisirs (Indulgence Domain)",
            "description": "<p>Vous vous régalez et vous pouvez vous débarrasser des effets de la surconsommation.</p>\n<p><strong>Sort de domaine</strong> <em>@UUID[Compendium.pf2e.spells-srd.Item.mFHQ2u4LWiejqKQG]{Gaver}</em>; <strong>Sort de domaine avancé</strong> <em>@UUID[Compendium.pf2e.spells-srd.Item.ZeHeNQ5BNq6m5F1j]{Suivre son cours}</em></p>\n<hr />\n<p><strong>Dieux</strong> @UUID[Compendium.pf2e.deities.Item.aj4ChTlDcZCmrtJD]{Baphomet}, @UUID[Compendium.pf2e.deities.Item.v67fHklTZ6LoU54q]{Cayden Cailéan}, @UUID[Compendium.pf2e.deities.Item.RUzMtIQal0drPwQY]{Gogunta}, @UUID[Compendium.pf2e.deities.Item.K1tzUClsozKcdpIe]{Halcamora}, @UUID[Compendium.pf2e.deities.Item.DEKKbg6riAdL2ARf]{Hei Feng}, @UUID[Compendium.pf2e.deities.Item.V5PbbkZUP9N7kl6h]{Kabriri}, @UUID[Compendium.pf2e.deities.Item.ItYptsfjV8XvfhOV]{Lahkgya}, @UUID[Compendium.pf2e.deities.Item.0nQItOlce5ua6Eaf]{Sekhmet}, @UUID[Compendium.pf2e.deities.Item.BLNXYqvzmLgjMq2p]{Sun Wukong}, @UUID[Compendium.pf2e.deities.Item.pVQzTL5elNTxvffu]{La mère verte}, @UUID[Compendium.pf2e.deities.Item.22n3N47sqbqbDxbp]{Urgathoa}, @UUID[Compendium.pf2e.deities.Item.4bEPoujxhYdUyUOg]{Ydersius}, @UUID[Compendium.pf2e.deities.Item.8ZSywyo8YQPduo92]{Zura}</p>"
        },
        "Soul Domain": {
            "name": "Âme (Soul Domain)",
            "description": "<p>Votre pouvoir s'exerce sur le spirituel.</p>\n<p><strong>Sort de domaine</strong> <em>@UUID[Compendium.pf2e.spells-srd.Item.rVhHaWqUsVUO4GuY]{Expulsion de l'âme}</em>; <strong>Sort de domaine avancé</strong> <em>@UUID[Compendium.pf2e.spells-srd.Item.QE9f3OxvvBThymD4]{Faille ectoplasmique}</em></p>\n<hr />\n<p><strong>Dieux</strong> @UUID[Compendium.pf2e.deities.Item.uXkMGx0OD896ZQlT]{Alglenweis}, @UUID[Compendium.pf2e.deities.Item.5YUNikBpJZ596MRD]{Anubis}, @UUID[Compendium.pf2e.deities.Item.DJ7LDFTtns6YFodT]{Ashava}, @UUID[Compendium.pf2e.deities.Item.tcXrtRYCOr2EmgGB]{Charon}, @UUID[Compendium.pf2e.deities.Item.ub0PJ5QkrdoGzzb2]{Luhar}, @UUID[Compendium.pf2e.deities.Item.QZD0u1jxwz0kj8uI]{Pharasma}, @UUID[Compendium.pf2e.deities.Item.1nQVLOyWv5kC0bCU]{Ravithra}, @UUID[Compendium.pf2e.deities.Item.aTYy1WHwAZiuei4h]{Tsukiyo}, @UUID[Compendium.pf2e.deities.Item.LLMTMgARSTlO7S9U]{Zyphus}</p>"
        },
        "Duty Domain": {
            "name": "Devoir (Duty Domain)",
            "description": "<p>Vous respectez vos serments et accomplissez vos missions divines avec le plus grand zèle.</p>\n<p><strong>Sort de domaine</strong> <em>@UUID[Compendium.pf2e.spells-srd.Item.cokeXkDHUAo4zHsw]{Insigne du gardien du serment}</em>; <strong>Sort de domaine avancé</strong> <em>@UUID[Compendium.pf2e.spells-srd.Item.caehfpQz7yp9yNzz]{Défi de dévouement}</em></p>\n<hr />\n<p><strong>Dieux</strong> @UUID[Compendium.pf2e.deities.Item.d56paSkcwvll2OhR]{Abadar}, @UUID[Compendium.pf2e.deities.Item.QRkcFciCOmFoxF1B]{Asmodeus}, @UUID[Compendium.pf2e.deities.Item.OlVCyRgOaPJji4qt]{Chohar}, @UUID[Compendium.pf2e.deities.Item.H1VrZ1QX0d2aPXT8]{Dammerich}, @UUID[Compendium.pf2e.deities.Item.CzHjFLx4hpIEIoWt]{Dispater}, @UUID[Compendium.pf2e.deities.Item.39z55kowQFOUH2v0]{Droskar}, @UUID[Compendium.pf2e.deities.Item.6mgCX7lvKtaEYoa9]{Panthéon nain}, @UUID[Compendium.pf2e.deities.Item.mm1j6UbHqFCI8fwB]{Érastil}, @UUID[Compendium.pf2e.deities.Item.eErEiVmBqltYXFJ6]{Iomédae}, @UUID[Compendium.pf2e.deities.Item.zhPhYge7VJbIlJvA]{Kols}, @UUID[Compendium.pf2e.deities.Item.nsiDGdgbAzkTQzOt]{Magrim}, @UUID[Compendium.pf2e.deities.Item.g1VxllMjs2YRIJAm]{Moloch}, @UUID[Compendium.pf2e.deities.Item.GEBaoeiv5CB9h2Bn]{Ragathiel}, @UUID[Compendium.pf2e.deities.Item.s9opv94lGDRKnw6W]{Shizuru}, @UUID[Compendium.pf2e.deities.Item.DFxbPmQLOqcmbPTz]{Tanagaar}, @UUID[Compendium.pf2e.deities.Item.JndhOIHnQoMwnsw3]{Le dieu griffu}, @UUID[Compendium.pf2e.deities.Item.sZrdzh0ANQnZGXJb]{Torag}, @UUID[Compendium.pf2e.deities.Item.N8a76dkGfUvxvSW0]{Trudd}, @UUID[Compendium.pf2e.deities.Item.y93whGnGZjFyw5A0]{Vildéïs}, @UUID[Compendium.pf2e.deities.Item.83jKKHQPoqVylmrF]{Yaezhing}</p>"
        },
        "Protection Domain": {
            "name": "Protection (Protection Domain)",
            "description": "<p>Vous vous protégez et protégez les autres.</p>\n<p><strong>Sort de domaine</strong> <em>@UUID[Compendium.pf2e.spells-srd.Item.rQYob0QMJ0I1U2sU]{Sacrifice du protecteur}</em> ; <strong>Sort de domaine avancé</strong> <em>@UUID[Compendium.pf2e.spells-srd.Item.DH9Y3RQGWO0GzXGU]{Sphère du protecteur}</em></p>\n<hr />\n<p><strong>Deities</strong> @UUID[Compendium.pf2e.deities.Item.9n2CI0B3EA4y3BuU]{Alséta}, @UUID[Compendium.pf2e.deities.Item.CDkr6eXR1lgu7g6A]{Andoletta}, @UUID[Compendium.pf2e.deities.Item.Xb1N5YfxboJH26Jh]{Angradd}, @UUID[Compendium.pf2e.deities.Item.5YUNikBpJZ596MRD]{Anubis}, @UUID[Compendium.pf2e.deities.Item.o8ayCv3LAHWlu0vQ]{Apsu}, @UUID[Compendium.pf2e.deities.Item.HtRxo4J3elFteIqu]{Arazni}, @UUID[Compendium.pf2e.deities.Item.jrPmEfubRDzMKbxl]{Arundhat}, @UUID[Compendium.pf2e.deities.Item.RbslST0RZPXj6Eby]{Ashukharma}, @UUID[Compendium.pf2e.deities.Item.R0DvoLO8WbYIYhb3]{Atréia}, @UUID[Compendium.pf2e.deities.Item.zRmAXj7FSlrMfDeA]{Bastet}, @UUID[Compendium.pf2e.deities.Item.eyGEoggFlTEUQmvJ]{Bès}, @UUID[Compendium.pf2e.deities.Item.6mgCX7lvKtaEYoa9]{Panthéon nain}, @UUID[Compendium.pf2e.deities.Item.VEyowuhC4FsBnG8c]{Folgrit}, @UUID[Compendium.pf2e.deities.Item.McUqN13BGLTpYWCg]{Homme Vert}, @UUID[Compendium.pf2e.deities.Item.tk7gRxXsqvBwQrUF]{Grundinnar}, @UUID[Compendium.pf2e.deities.Item.rRuxBgC58PxrLzRv]{Horus}, @UUID[Compendium.pf2e.deities.Item.bF77ydtptI54STl9]{Jaïdz}, @UUID[Compendium.pf2e.deities.Item.iXvyp9rGnqvFfy4q]{Kazutal}, @UUID[Compendium.pf2e.deities.Item.5ZIvg8CkqRMepVcX]{Korada}, @UUID[Compendium.pf2e.deities.Item.QibpLccM5bLUMopj]{Lymnieris}, @UUID[Compendium.pf2e.deities.Item.ArmPZQrl0SFAKvrY]{Maât}, @UUID[Compendium.pf2e.deities.Item.9EKyWmjLUu42evxC]{Néthys}, @UUID[Compendium.pf2e.deities.Item.giAsBYiL2omr0x2L]{Qi Zhong}, @UUID[Compendium.pf2e.deities.Item.xTD0XFaguBX6QQ2L]{Selket}, @UUID[Compendium.pf2e.deities.Item.gxwmzxUWBOhdgFSN]{Shelyn}, @UUID[Compendium.pf2e.deities.Item.TvxsVRztDlGcWpcI]{Sobek}, @UUID[Compendium.pf2e.deities.Item.vnmoAGURp8oWCY6R]{Soralyon}, @UUID[Compendium.pf2e.deities.Item.JndhOIHnQoMwnsw3]{Le dieu griffu}, @UUID[Compendium.pf2e.deities.Item.6nq25AjImkT5GxDT]{Le rayon prismatique}, @UUID[Compendium.pf2e.deities.Item.sZrdzh0ANQnZGXJb]{Torag}, @UUID[Compendium.pf2e.deities.Item.N8a76dkGfUvxvSW0]{Trudd}, @UUID[Compendium.pf2e.deities.Item.GUmYLD7PGmE2TOx6]{Wadjet}, @UUID[Compendium.pf2e.deities.Item.ZynnoQJFz12FD0Xn]{Protection du pharaon}, @UUID[Compendium.pf2e.deities.Item.8wOAwLMgB1HFLo9n]{Winlas}</p>"
        },
        "Abomination Domain": {
            "name": "Abomination (Abomination Domain)",
            "description": "<p>Vous cherchez à susciter la répugnance et l'horreur chez ceux qui vous entourent.</p>\n<p><strong>Sort de domaine</strong> <em>@UUID[Compendium.pf2e.spells-srd.Item.6GjJtLJnwC18Y0aZ]{Vraie nature}</em><u></u>; <strong>Sort de domaine avancé</strong> <em>@UUID[Compendium.pf2e.spells-srd.Item.0qA4MfMkFklOz2Lk]{Festin d'épouvante}</em></p>\n<hr />\n<p><strong>Dieux</strong> @UUID[Compendium.pf2e.deities.Item.8Oy4qHylOOp79JxD]{Nhimbaloth}</p>"
        },
        "Introspection Domain": {
            "name": "Introspection (Introspection Domain)",
            "description": "<p>Vous guidez les autres à travers l'examen de leur vie, de leurs émotions et de leurs motivations en vue de devenir une version plus authentique d'eux-mêmes - un processus difficile et souvent douloureux.</p>\n<p><strong>Sort de domaine</strong> <em>@UUID[Compendium.pf2e.spells-srd.Item.R569jdqpNry8m0TJ]{Introspection guidée}</em> ; <strong>Sort de domaine avancé</strong> <em>@UUID[Compendium.pf2e.spells-srd.Item.VGK9s6LCMMS027zP]{Se confronter à soi-même}</em></p>\n<hr />\n<p><strong>Dieux</strong> @UUID[Compendium.pf2e.deities.Item.hhV2g6aU8jKLEca1]{Narakaas}</p>"
        },
        "Undeath Domain": {
            "name": "Non-Mort (Undeath Domain)",
            "description": "<p>Votre magie est fortement liée aux morts-vivants.</p>\n<p><strong>Sort de domaine</strong> <em>@UUID[Compendium.pf2e.spells-srd.Item.GYI4xloAgkm6tTrT]{Contact de la non-mort}</em>; <strong>Sort de domaine avancé</strong> <em>@UUID[Compendium.pf2e.spells-srd.Item.qzsQmpiQodHBBWYI]{Alimentation maléfique}</em></p>\n<hr />\n<p><strong>Deities</strong> @UUID[Compendium.pf2e.deities.Item.6O4UGWcYERDEugzk]{Fumeiyoshi}, @UUID[Compendium.pf2e.deities.Item.V5PbbkZUP9N7kl6h]{Kabriri}, @UUID[Compendium.pf2e.deities.Item.Af4TSJjutVi9Vdwi]{Mahathallah}, @UUID[Compendium.pf2e.deities.Item.8Oy4qHylOOp79JxD]{Nhimbaloth}, @UUID[Compendium.pf2e.deities.Item.22n3N47sqbqbDxbp]{Urgathoa}, @UUID[Compendium.pf2e.deities.Item.8ZSywyo8YQPduo92]{Zura}, @UUID[Compendium.pf2e.deities.Item.LLMTMgARSTlO7S9U]{Zyphus}</p>"
        },
        "Tyranny Domain": {
            "name": "Tyrannie (Tyranny Domain)",
            "description": "<p>Vous avez le pouvoir de régner sur les autres et de les réduire en esclavage.</p>\n<p><strong>Sort de domaine</strong> <em>@UUID[Compendium.pf2e.spells-srd.Item.MmQiEc7aM9PDLO2J]{Obéissance}</em>; <strong>Sort de domaine avancé</strong> <em>@UUID[Compendium.pf2e.spells-srd.Item.4DaHIgtMBTyxebY3]{Fouet du maître}</em></p>\n<hr />\n<p><strong>Dieux</strong> @UUID[Compendium.pf2e.deities.Item.cHAbE86pto5bvIWo]{Angazhan}, @UUID[Compendium.pf2e.deities.Item.QRkcFciCOmFoxF1B]{Asmodeus}, @UUID[Compendium.pf2e.deities.Item.oiEo6tDP3gICHtfZ]{Barbatos}, @UUID[Compendium.pf2e.deities.Item.CzHjFLx4hpIEIoWt]{Dispater}, @UUID[Compendium.pf2e.deities.Item.39z55kowQFOUH2v0]{Droskar}, @UUID[Compendium.pf2e.deities.Item.RUzMtIQal0drPwQY]{Gogunta}, @UUID[Compendium.pf2e.deities.Item.KWVdoAm3b01M8Lcp]{Méphistophélès}, @UUID[Compendium.pf2e.deities.Item.IZcdF1G8ZsnMotaM]{Pazuzu}, @UUID[Compendium.pf2e.deities.Item.JndhOIHnQoMwnsw3]{Le dieu griffu}, @UUID[Compendium.pf2e.deities.Item.ENzMYuzBZGIujSMx]{Fléau des arbres}, @UUID[Compendium.pf2e.deities.Item.g1AVEGi8QibhS007]{Walkéna}</p>"
        },
        "Dust Domain": {
            "name": "Poussière (Dust Domain)",
            "description": "<p>Vous avez le pouvoir d'assécher et de désagréger ce qui s'oppose à vous.</p>\n<p><strong>Sort de domaine</strong> <em>@UUID[Compendium.pf2e.spells-srd.Item.7CUgqHunmHfW2lC5]{Dessèchement}</em>; <strong>Sort de domaine avancé</strong> <em>@UUID[Compendium.pf2e.spells-srd.Item.K1wmI4qPmRhFczmy]{Tempête de poussière}</em></p>\n<hr />\n<p><strong>Dieux</strong> @UUID[Compendium.pf2e.deities.Item.A37XqON6QRPzQhp7]{Hshurha}, @UUID[Compendium.pf2e.deities.Item.SAuFz101iP6VVwvw]{Nurgal}, @UUID[Compendium.pf2e.deities.Item.9eltBjLngkR9x1Xm]{Trelmarixian}, @UUID[Compendium.pf2e.deities.Item.7L9KIqixgseSCY3X]{Yméri}</p>"
        },
        "Pain Domain": {
            "name": "Souffrance (Pain Domain)",
            "description": "<p>Le douloureux aiguillon de la souffrance vient punir ceux qui vous déplaisent.</p>\n<p><strong>Sort de domaine</strong> <em>@UUID[Compendium.pf2e.spells-srd.Item.xn0V2HDrmDWNzPEt]{Savourer la douleur}</em>; <strong>Sort de domaine avancé</strong> <em>@UUID[Compendium.pf2e.spells-srd.Item.SSsUC7rZo0CwayPn]{Souffrance vengeresse}</em></p>\n<hr />\n<p><strong>Dieux</strong> @UUID[Compendium.pf2e.deities.Item.HtRxo4J3elFteIqu]{Arazni}, @UUID[Compendium.pf2e.deities.Item.AlL9GtlTldbqNoVm]{Calistria}, @UUID[Compendium.pf2e.deities.Item.AMFkYKUNQ3kCD0ob]{Doloras}, @UUID[Compendium.pf2e.deities.Item.zlJGKpeLBwajP91o]{Gyronna}, @UUID[Compendium.pf2e.deities.Item.hhV2g6aU8jKLEca1]{Narakaas}, @UUID[Compendium.pf2e.deities.Item.zzhYFcShT9JoE2Mp]{Shax}, @UUID[Compendium.pf2e.deities.Item.BrbXGyzCeORNyJT5]{Sifkesh}, @UUID[Compendium.pf2e.deities.Item.fTs56epghXwclPcX]{Mère Élaphe de la Forêt de pierres}, @UUID[Compendium.pf2e.deities.Item.y93whGnGZjFyw5A0]{Vildéïs}, @UUID[Compendium.pf2e.deities.Item.83jKKHQPoqVylmrF]{Yaezhing}, @UUID[Compendium.pf2e.deities.Item.ZfN7jkK6boU1FuiS]{Zon-Kuthon}</p>"
        },
        "Confidence Domain": {
            "name": "Confiance en soi (Confidence Domain)",
            "description": "<p>Vous surmontez vos peurs et rayonnez de fierté.</p>\n<p><strong>Sort de domaine</strong> <em>@UUID[Compendium.pf2e.spells-srd.Item.Q25JQAgnJSGgFDKZ]{Voile de confiance}</em>; <strong>Sort de domaine avancé</strong> <em>@UUID[Compendium.pf2e.spells-srd.Item.J8pL8yTshga8QOk8]{Fierté illusoire}</em></p>\n<hr />\n<p><strong>Dieux</strong> @UUID[Compendium.pf2e.deities.Item.HtRxo4J3elFteIqu]{Arazni}, @UUID[Compendium.pf2e.deities.Item.KDFujU3Yug6AwCOz]{Arshéa}, @UUID[Compendium.pf2e.deities.Item.QRkcFciCOmFoxF1B]{Asmodeus}, @UUID[Compendium.pf2e.deities.Item.HD7g8T8ioy1EH3M8]{Bolka}, @UUID[Compendium.pf2e.deities.Item.4GO4iT585ynLJnc8]{Chaldira}, @UUID[Compendium.pf2e.deities.Item.vSUz97Y29l1O50bC]{Comte Ranalc}, @UUID[Compendium.pf2e.deities.Item.CzHjFLx4hpIEIoWt]{Dispater}, @UUID[Compendium.pf2e.deities.Item.8DXel4AvpyUy6oJ0]{Éritrice}, @UUID[Compendium.pf2e.deities.Item.Zi1UARhode3FSFLr]{Général Susumu}, @UUID[Compendium.pf2e.deities.Item.88vRw2ZVPax4hhga]{Gorum}, @UUID[Compendium.pf2e.deities.Item.tk7gRxXsqvBwQrUF]{Grundinnar}, @UUID[Compendium.pf2e.deities.Item.eErEiVmBqltYXFJ6]{Iomédae}, @UUID[Compendium.pf2e.deities.Item.bF77ydtptI54STl9]{Jaidz}, @UUID[Compendium.pf2e.deities.Item.Mv6uTJLh3VGEoGLH]{Nivi Rhomboéblouissante}, @UUID[Compendium.pf2e.deities.Item.o9tK1T28LNEVzpFV]{Ragdya}, @UUID[Compendium.pf2e.deities.Item.u3YfcJh1C4w6n75j]{Raumya}, @UUID[Compendium.pf2e.deities.Item.97Qe42wJN5EVUS14]{Sturovenen}, @UUID[Compendium.pf2e.deities.Item.PFp4Sdp2TDDKD62l]{Thamir}, @UUID[Compendium.pf2e.deities.Item.N8a76dkGfUvxvSW0]{Trudd}</p>"
        },
        "Healing Domain": {
            "name": "Guérison (Healing Domain)",
            "description": "<p>Votre magie de guérison est particulièrement puissante.</p>\n<p><strong>Sort de domaine</strong> <em>@UUID[Compendium.pf2e.spells-srd.Item.rhJyqB9g3ziImQgM]{Bénédiction du guérisseur}</em>; <strong>Sort de domaine avancé</strong> <em>@UUID[Compendium.pf2e.spells-srd.Item.4nHYSMHito1GUXlm]{Réprimander la mort}</em></p>\n<hr />\n<p><strong>Dieux</strong> @UUID[Compendium.pf2e.deities.Item.jrPmEfubRDzMKbxl]{Arundhat}, @UUID[Compendium.pf2e.deities.Item.R0DvoLO8WbYIYhb3]{Atréia}, @UUID[Compendium.pf2e.deities.Item.HD7g8T8ioy1EH3M8]{Bolka}, @UUID[Compendium.pf2e.deities.Item.yiKle2URZ43KYVKQ]{Chamidu}, @UUID[Compendium.pf2e.deities.Item.McUqN13BGLTpYWCg]{Homme vert}, @UUID[Compendium.pf2e.deities.Item.EFyDjlH7XjGq7Erd]{Isis}, @UUID[Compendium.pf2e.deities.Item.5ZIvg8CkqRMepVcX]{Korada}, @UUID[Compendium.pf2e.deities.Item.6nq25AjImkT5GxDT]{Le rayon prismatique}, @UUID[Compendium.pf2e.deities.Item.fTs56epghXwclPcX]{Mère Élaphe de la Forêt de pierres}, @UUID[Compendium.pf2e.deities.Item.nuvfUC4TcOvFbKxx]{Osiris}, @UUID[Compendium.pf2e.deities.Item.QZD0u1jxwz0kj8uI]{Pharasma}, @UUID[Compendium.pf2e.deities.Item.ZynnoQJFz12FD0Xn]{Protection du pharaon}, @UUID[Compendium.pf2e.deities.Item.giAsBYiL2omr0x2L]{Qi Zhong}, @UUID[Compendium.pf2e.deities.Item.BNycwu3I21dTh4D9]{Sarenrae}, @UUID[Compendium.pf2e.deities.Item.0nQItOlce5ua6Eaf]{Sekhmet}, @UUID[Compendium.pf2e.deities.Item.xTD0XFaguBX6QQ2L]{Selket}, @UUID[Compendium.pf2e.deities.Item.ra7mnjAZcEuJxI37]{Sheï}, @UUID[Compendium.pf2e.deities.Item.0R2BjVb7d9tYCIbk]{Tlehar}</p>"
        },
        "Decay Domain": {
            "name": "Décomposition (Decay Domain)",
            "description": "<p>Vous avez le pouvoir de gâcher et de détériorer la matière.</p>\n<p><strong>Sort de domaine</strong> <em>@UUID[Compendium.pf2e.spells-srd.Item.7tp97g0UCJ9wOrd5]{Poigne de flétrissement}</em>; <strong>Sort de domaine avancé</strong> <em>@UUID[Compendium.pf2e.spells-srd.Item.2RhZkHNv8ajq0yLq]{Champ inactif}</em></p>\n<hr />\n<p><strong>Dieux</strong> @UUID[Compendium.pf2e.deities.Item.oJPwMa9xG8oMnC14]{Apollyon}, @UUID[Compendium.pf2e.deities.Item.sILda7I8Ak20Ioj9]{Azathoth}, @UUID[Compendium.pf2e.deities.Item.gXHoxuuiAD54LnWV]{Cyth-V'sug}, @UUID[Compendium.pf2e.deities.Item.oRvuLq3o2FxXizt9]{Ghlaunder}, @UUID[Compendium.pf2e.deities.Item.WloVxo6HXJdS4YTt]{Groétus}, @UUID[Compendium.pf2e.deities.Item.s81N9hxffmRuy3ik]{Kerkamoth}, @UUID[Compendium.pf2e.deities.Item.E1dUhoSEf2XfklU2]{Mère Vautour}, @UUID[Compendium.pf2e.deities.Item.8Oy4qHylOOp79JxD]{Nhimbaloth}, @UUID[Compendium.pf2e.deities.Item.3INt1X4ijBYnZYbU]{Shyka}, @UUID[Compendium.pf2e.deities.Item.pVQzTL5elNTxvffu]{La mère verte}, @UUID[Compendium.pf2e.deities.Item.9eltBjLngkR9x1Xm]{Trelmarixian}, @UUID[Compendium.pf2e.deities.Item.22n3N47sqbqbDxbp]{Urgathoa}, @UUID[Compendium.pf2e.deities.Item.mebdNVKeKuTmDDHj]{Xhamen-Dor}</p>"
        },
        "Might Domain": {
            "name": "Puissance (Might Domain)",
            "description": "<p>La puissance divine renforce votre physique.</p>\n<p><strong>Sort de domaine</strong> <em>@UUID[Compendium.pf2e.spells-srd.Item.UGJzJRJDoonfWqqI]{Athlétisme poussé}</em> ; <strong>Sort de domaine avancé</strong> <em>@UUID[Compendium.pf2e.spells-srd.Item.eG1fBodYwolaXK98]{Puissance protectrice}</em></p>\n<hr />\n<p><strong>Dieux</strong> @UUID[Compendium.pf2e.deities.Item.51kMMWaT6CqpGlGk]{Achaékek}, @UUID[Compendium.pf2e.deities.Item.uXkMGx0OD896ZQlT]{Alglenweis}, @UUID[Compendium.pf2e.deities.Item.cHAbE86pto5bvIWo]{Angazhan}, @UUID[Compendium.pf2e.deities.Item.RbslST0RZPXj6Eby]{Ashukharma}, @UUID[Compendium.pf2e.deities.Item.aChBtIDfA59QQ7SN]{Ayrzul}, @UUID[Compendium.pf2e.deities.Item.aj4ChTlDcZCmrtJD]{Baphomet}, @UUID[Compendium.pf2e.deities.Item.v67fHklTZ6LoU54q]{Cayden Cailéan}, @UUID[Compendium.pf2e.deities.Item.oyp2E685VsQFKMXi]{Dranngvit}, @UUID[Compendium.pf2e.deities.Item.aVyxfqY9GBjTqQul]{Eiseth}, @UUID[Compendium.pf2e.deities.Item.IXLzDSMGndFb5rGY]{Falayna}, @UUID[Compendium.pf2e.deities.Item.Zi1UARhode3FSFLr]{Général Susumu}, @UUID[Compendium.pf2e.deities.Item.WOiSJ4IWjaRsSgRO]{Géryon}, @UUID[Compendium.pf2e.deities.Item.RUzMtIQal0drPwQY]{Gogunta}, @UUID[Compendium.pf2e.deities.Item.88vRw2ZVPax4hhga]{Gorum}, @UUID[Compendium.pf2e.deities.Item.McUqN13BGLTpYWCg]{Homme vert}, @UUID[Compendium.pf2e.deities.Item.VvxEvEKhCGRwrMJp]{Imbrex}, @UUID[Compendium.pf2e.deities.Item.eErEiVmBqltYXFJ6]{Iomédae}, @UUID[Compendium.pf2e.deities.Item.qqqrbq4uCrelQvgH]{Irori}, @UUID[Compendium.pf2e.deities.Item.aLCfEgt48SRUHnMC]{Jaidz}, @UUID[Compendium.pf2e.deities.Item.iXvyp9rGnqvFfy4q]{Kazutal}, @UUID[Compendium.pf2e.deities.Item.zhPhYge7VJbIlJvA]{Kols}, @UUID[Compendium.pf2e.deities.Item.JcIf4uwKLxEWdplI]{Kostchtchie}, @UUID[Compendium.pf2e.deities.Item.r5vooG7NfvA9prJK]{Kurgess}, @UUID[Compendium.pf2e.deities.Item.aipkJQxP4GBsTaGq]{Lamashtu}, @UUID[Compendium.pf2e.deities.Item.g1VxllMjs2YRIJAm]{Moloch}, @UUID[Compendium.pf2e.deities.Item.o9tK1T28LNEVzpFV]{Ragdya}, @UUID[Compendium.pf2e.deities.Item.u3YfcJh1C4w6n75j]{Raumya}, @UUID[Compendium.pf2e.deities.Item.0nQItOlce5ua6Eaf]{Sekhmet}, @UUID[Compendium.pf2e.deities.Item.TvxsVRztDlGcWpcI]{Sobek}, @UUID[Compendium.pf2e.deities.Item.BLNXYqvzmLgjMq2p]{Sun Wukong}, @UUID[Compendium.pf2e.deities.Item.rDTXcBJ8LyqA2TkL]{Szuriel}, @UUID[Compendium.pf2e.deities.Item.N8a76dkGfUvxvSW0]{Trudd}, @UUID[Compendium.pf2e.deities.Item.22n3N47sqbqbDxbp]{Urgathoa}, @UUID[Compendium.pf2e.deities.Item.tb0oADxOoMhyrYRA]{Yamatsumi}, @UUID[Compendium.pf2e.deities.Item.4bEPoujxhYdUyUOg]{Ydersius}, @UUID[Compendium.pf2e.deities.Item.8roijlQ03l9rWFFe]{Zevgavizeb}</p>"
        },
        "Moon Domain": {
            "name": "Lune (Moon Domain)",
            "description": "<p>Vous commandez aux puissances associées à la lune.</p>\n<p><strong>Sort de domaine</strong> <em>@UUID[Compendium.pf2e.spells-srd.Item.SuBtUJiU6DbSJYIw]{Rayon de lune}</em>; <strong>Sort de domaine avancé</strong> <em>@UUID[Compendium.pf2e.spells-srd.Item.oXCwHBeDja4e0Mx0]{Contact lunaire}</em></p>\n<hr />\n<p><strong>Dieux</strong> @UUID[Compendium.pf2e.deities.Item.DJ7LDFTtns6YFodT]{Ashava}, @UUID[Compendium.pf2e.deities.Item.oV5cnlPJQS8JfMIg]{Caravane cosmique}, @UUID[Compendium.pf2e.deities.Item.JgqH3BhuEuA4Zyqs]{Desna}, @UUID[Compendium.pf2e.deities.Item.liXIbl7y8www2eAn]{Findeladlara}, @UUID[Compendium.pf2e.deities.Item.rRuxBgC58PxrLzRv]{Horus}, @UUID[Compendium.pf2e.deities.Item.wjXNXFWBLbJaeZQR]{Ketephys}, @UUID[Compendium.pf2e.deities.Item.VG51y4FbTLdeGHZB]{Le chemin des cieux}, @UUID[Compendium.pf2e.deities.Item.6nq25AjImkT5GxDT]{Le rayon prismatique}, @UUID[Compendium.pf2e.deities.Item.aievwuZalZ2abs2q]{Thoth}, @UUID[Compendium.pf2e.deities.Item.aTYy1WHwAZiuei4h]{Tsukiyo}</p"
        },
        "Darkness Domain": {
            "name": "Ténèbres (Darkness Domain)",
            "description": "<p>Vous opérez dans les ténèbres et emportez la lumière.</p>\n<p><strong>Sort de domaine</strong> <em>@UUID[Compendium.pf2e.spells-srd.Item.SE0fbgBj7atuukdv]{Manteau d'ombre}</em>; <strong>Sort de domaine avancé</strong> <em>@UUID[Compendium.pf2e.spells-srd.Item.oiUhJbJ3YCKF62Fu]{Assombrir le regard}</em></p>\n<hr />\n<p><strong>Dieux</strong> @UUID[Compendium.pf2e.deities.Item.pCtJONJlhAugUXaG]{Ahriman}, @UUID[Compendium.pf2e.deities.Item.uydTiyN5AzhBnQY8]{Ardad Lili}, @UUID[Compendium.pf2e.deities.Item.DJ7LDFTtns6YFodT]{Ashava}, @UUID[Compendium.pf2e.deities.Item.oV5cnlPJQS8JfMIg]{Caravane cosmique}, @UUID[Compendium.pf2e.deities.Item.vSUz97Y29l1O50bC]{Comte Ranalc}, @UUID[Compendium.pf2e.deities.Item.fuPTR1laXO6EionS]{Grand-mère araignée}, @UUID[Compendium.pf2e.deities.Item.WloVxo6HXJdS4YTt]{Groétus}, @UUID[Compendium.pf2e.deities.Item.s81N9hxffmRuy3ik]{Kerkamoth}, @UUID[Compendium.pf2e.deities.Item.wjXNXFWBLbJaeZQR]{Kétéphys}, @UUID[Compendium.pf2e.deities.Item.MbJ93Nw39h2cBYi5]{Lao Shu Po}, @UUID[Compendium.pf2e.deities.Item.ub0PJ5QkrdoGzzb2]{Luhar}, @UUID[Compendium.pf2e.deities.Item.jL1qiVOZBKXETtVD]{Nocticula}, @UUID[Compendium.pf2e.deities.Item.iKgERiIc8rt3fatf]{Nyarlathotep (Celui qui hante les ténèbres)}, @UUID[Compendium.pf2e.deities.Item.3nxIpMGeCvcBIVov]{Nyarlathotep (Le chaos rampant)},@UUID[Compendium.pf2e.Vzxm5FyIA40b2OSP]{Pulura}, @UUID[Compendium.pf2e.deities.Item.DFxbPmQLOqcmbPTz]{Tanagaar}, @UUID[Compendium.pf2e.deities.Item.ZfN7jkK6boU1FuiS]{Zon-Kuthon}</p>"
        },
        "Sorrow Domain": {
            "name": "Chagrin (Sorrow Domain)",
            "description": "<p>Vous avez une douloureuse affinité avec la mélancolie et la tristesse.</p>\n<p><strong>Sort de domaine</strong> <em>@UUID[Compendium.pf2e.spells-srd.Item.T90ij2uu6ZaBaSXV]{Lamentation}</em>; <strong>Sort de domaine avancé</strong> <em>@UUID[Compendium.pf2e.spells-srd.Item.eCniO6INHNfc9Svr]{Chagrin accablant}</em></p>\n<hr />\n<p><strong>Dieux</strong> @UUID[Compendium.pf2e.deities.Item.CDkr6eXR1lgu7g6A]{Andoletta}, @UUID[Compendium.pf2e.deities.Item.HtRxo4J3elFteIqu]{Arazni}, @UUID[Compendium.pf2e.deities.Item.vSUz97Y29l1O50bC]{Comte Ranalc},@UUID[Compendium.pf2e.deities.Item.AMFkYKUNQ3kCD0ob]{Doloras}, @UUID[Compendium.pf2e.deities.Item.lUFMwdv1UOyzFhIM]{Likha}, @UUID[Compendium.pf2e.deities.Item.pm8H2DbtrHM01KNV]{Nadéri}, @UUID[Compendium.pf2e.deities.Item.hhV2g6aU8jKLEca1]{Narakaas}, @UUID[Compendium.pf2e.deities.Item.Vzxm5FyIA40b2OSP]{Pulura}, @UUID[Compendium.pf2e.deities.Item.1nQVLOyWv5kC0bCU]{Ravithra}, @UUID[Compendium.pf2e.deities.Item.s9opv94lGDRKnw6W]{Shizuru}, @UUID[Compendium.pf2e.deities.Item.BrbXGyzCeORNyJT5]{Sifkesh}, @UUID[Compendium.pf2e.deities.Item.HbuynQRCjGKtbhcC]{Le Prince perdu}, @UUID[Compendium.pf2e.deities.Item.y93whGnGZjFyw5A0]{Vildéïs}, @UUID[Compendium.pf2e.deities.Item.LLMTMgARSTlO7S9U]{Zyphus}</p>"
        },
        "Swarm Domain": {
            "name": "Nuées (Swarm Domain)",
            "description": "<p>Vous exercez un contrôle sur des pullulations de créatures.</p>\n<p><strong>Sort de Domaine</strong> <em>@UUID[Compendium.pf2e.spells-srd.Item.5wjl0ZwEvvUh7sor]{Sens de nuée}</em>; <strong>Sort de domaine avancé</strong> <em>@UUID[Compendium.pf2e.spells-srd.Item.Pd2M1XY8EXrSfWgJ]{Forme de nuée}</em></p>\n<hr />\n<p><strong>Dieux</strong> @UUID[Compendium.pf2e.deities.Item.oJPwMa9xG8oMnC14]{Apollyon}, @UUID[Compendium.pf2e.deities.Item.oRvuLq3o2FxXizt9]{Ghlaunder}, @UUID[Compendium.pf2e.deities.Item.K1tzUClsozKcdpIe]{Halcamora}, @UUID[Compendium.pf2e.deities.Item.ItYptsfjV8XvfhOV]{Lahkgya}, @UUID[Compendium.pf2e.deities.Item.MbJ93Nw39h2cBYi5]{Lao Shu Po}, @UUID[Compendium.pf2e.deities.Item.IZcdF1G8ZsnMotaM]{Pazuzu}, @UUID[Compendium.pf2e.deities.Item.Bhxji0kxIbMKqdkw]{Rovagug}, @UUID[Compendium.pf2e.deities.Item.22n3N47sqbqbDxbp]{Urgathoa}</p>"
        },
        "Freedom Domain": {
            "name": "Liberté (Freedom Domain)",
            "description": "<p>Vous libérez votre personne et vos semblables des liens et des chaînes.</p>\n<p><strong>Sort de domaine</strong> <em>@UUID[Compendium.pf2e.spells-srd.Item.gwOYh5zMVZB0HNcT]{Déplacement sans entraves}</em>; <strong>Sort de domaine anvancé</strong> <em>@UUID[Compendium.pf2e.spells-srd.Item.2jB9eyX7YekwoCvA]{Mot de liberté}</em></p>\n<hr />\n<p><strong>Dieux</strong> @UUID[Compendium.pf2e.deities.Item.HtRxo4J3elFteIqu]{Arazni}, @UUID[Compendium.pf2e.deities.Item.KDFujU3Yug6AwCOz]{Arshéa}, @UUID[Compendium.pf2e.deities.Item.c9NFjRR8gr6CWpjl]{Papillon noir}, @UUID[Compendium.pf2e.deities.Item.soiVh53y9RAeSLEk]{Casandalee}, @UUID[Compendium.pf2e.deities.Item.v67fHklTZ6LoU54q]{Cayden Cailéan}, @UUID[Compendium.pf2e.deities.Item.oV5cnlPJQS8JfMIg]{Caravane cosmique},@UUID[Compendium.pf2e.deities.Item.IXLzDSMGndFb5rGY]{Falayna}, @UUID[Compendium.pf2e.deities.Item.iXvyp9rGnqvFfy4q]{Kazutal}, @UUID[Compendium.pf2e.deities.Item.fTJLgTfEMZreJ19r]{Milani}, @UUID[Compendium.pf2e.deities.Item.65o189p2eUPbqaDK]{Narriseminek}, @UUID[Compendium.pf2e.deities.Item.Ij1KRM8ufkEjGnR3]{Ranginori}, @UUID[Compendium.pf2e.deities.Item.1xHnoMlCyCV70TnT]{Saloc}, @UUID[Compendium.pf2e.deities.Item.ra7mnjAZcEuJxI37]{Sheï}, @UUID[Compendium.pf2e.deities.Item.g1AVEGi8QibhS007]{Walkena}</p>"
        },
        "Knowledge Domain": {
            "name": "Savoir (Knowledge Domain)",
            "description": "<p>Vous recevez des intuitions divines.</p>\n<p><strong>Sort de domaine</strong> <em>@UUID[Compendium.pf2e.spells-srd.Item.dXIRotMLsABDQQSB]{Souvenirs érudits}</em>; <strong>Sort de domaine avancé</strong> <em>@UUID[Compendium.pf2e.spells-srd.Item.l6zjNysNedpJcmDT]{Connaître son ennemi}</em></p>\n<hr />\n<p><strong>Dieux</strong> @UUID[Compendium.pf2e.deities.Item.bLI1JMpI2GXQT5AC]{Abraxas}, @UUID[Compendium.pf2e.deities.Item.CDkr6eXR1lgu7g6A]{Andoletta}, @UUID[Compendium.pf2e.deities.Item.UUcAqU3KeJSMNxGF]{Barzahk}, @UUID[Compendium.pf2e.deities.Item.vEMCpm7iidycRT5D]{Brigh}, @UUID[Compendium.pf2e.deities.Item.soiVh53y9RAeSLEk]{Casandalee}, @UUID[Compendium.pf2e.deities.Item.tcXrtRYCOr2EmgGB]{Charon}, @UUID[Compendium.pf2e.deities.Item.dcbf3pBSNa2q1Kkq]{Dhalavei}, @UUID[Compendium.pf2e.deities.Item.oyp2E685VsQFKMXi]{Dranngvit}, @UUID[Compendium.pf2e.deities.Item.8DXel4AvpyUy6oJ0]{Éritrice}, @UUID[Compendium.pf2e.deities.Item.xxUGdZYUj5IW7E0L]{Fidèles du destin}, @UUID[Compendium.pf2e.deities.Item.tcvobm8O84qv0aO5]{Gruhastha}, @UUID[Compendium.pf2e.deities.Item.qqqrbq4uCrelQvgH]{Irori}, @UUID[Compendium.pf2e.deities.Item.V5PbbkZUP9N7kl6h]{Kabriri}, @UUID[Compendium.pf2e.deities.Item.zhPhYge7VJbIlJvA]{Kols}, @UUID[Compendium.pf2e.deities.Item.xu05XGotyT5st56H]{Dame Jingxi}, @UUID[Compendium.pf2e.deities.Item.lUFMwdv1UOyzFhIM]{Likha}, @UUID[Compendium.pf2e.deities.Item.ArmPZQrl0SFAKvrY]{Maât}, @UUID[Compendium.pf2e.deities.Item.iMRXc519Uepf8yH3]{Magdh}, @UUID[Compendium.pf2e.deities.Item.KWVdoAm3b01M8Lcp]{Méphistophélès}, @UUID[Compendium.pf2e.deities.Item.W4QGkdn9V5ACRpkh]{La Monade}, @UUID[Compendium.pf2e.deities.Item.65o189p2eUPbqaDK]{Narriseminek}, @UUID[Compendium.pf2e.deities.Item.9EKyWmjLUu42evxC]{Néthys}, @UUID[Compendium.pf2e.deities.Item.RzTd9PmgnfHNlFVf]{Ng}, @UUID[Compendium.pf2e.deities.Item.iKgERiIc8rt3fatf]{Nyarlathotep (Celui qui hante les ténèbres)}, @UUID[Compendium.pf2e.deities.Item.3nxIpMGeCvcBIVov]{Nyarlathotep (Le chaos rampant)}, @UUID[Compendium.pf2e.deities.Item.JgDqFUB1NtQkGmzp]{Otolmens}, @UUID[Compendium.pf2e.deities.Item.QZD0u1jxwz0kj8uI]{Pharasma}, @UUID[Compendium.pf2e.deities.Item.WO9UsCY41oTtC2G0]{Piliers de la connaissance}, @UUID[Compendium.pf2e.deities.Item.giAsBYiL2omr0x2L]{Qi Zhong}, @UUID[Compendium.pf2e.deities.Item.u3YfcJh1C4w6n75j]{Raumya}, @UUID[Compendium.pf2e.deities.Item.1xHnoMlCyCV70TnT]{Saloc}, @UUID[Compendium.pf2e.deities.Item.HbuynQRCjGKtbhcC]{Le prince perdu}, @UUID[Compendium.pf2e.deities.Item.9FWBJcADLEeP8Krf]{Valmallos}, @UUID[Compendium.pf2e.deities.Item.ZynnoQJFz12FD0Xn]{Protection du pharaon}, @UUID[Compendium.pf2e.deities.Item.8wOAwLMgB1HFLo9n]{Winlas}, @UUID[Compendium.pf2e.deities.Item.iEt6idGIEPXY2HzV]{Ydajisk}, @UUID[Compendium.pf2e.deities.Item.SUaGdvQXxSAQAw03]{Yog-Sothoth}, @UUID[Compendium.pf2e.deities.Item.uYpxTi4byHc5w78R]{Yuelral}, @UUID[Compendium.pf2e.deities.Item.SCGdJmm7Wzle9jFP]{Zohls}</p>"
        },
        "Naga Domain": {
            "name": "Naga (Naga Domain)",
            "description": "<p>Comme les nagas serpentiformes, vous êtes en phase avec les forces cosmiques que Ravithra contrôlait autrefois.</p>\n<p><strong>Sort de domaine</strong> <em>@UUID[Compendium.pf2e.spells-srd.Item.lXxP1ziyf4ozkpmv]{Langue bifide}</em>; <strong>Sort de domaine avancé</strong> <em>@UUID[Compendium.pf2e.spells-srd.Item.CPNlhDQP3aDmLzB3]{Résolution sacrée}</em></p>\n<hr />\n<p><strong>Deities</strong> @UUID[Compendium.pf2e.deities.Item.1nQVLOyWv5kC0bCU]{Ravithra}</p>"
        },
        "Wealth Domain": {
            "name": "Richesse (Wealth Domain)",
            "description": "<p>Vous exercez votre pouvoir sur la richesse, le commerce et les trésors.</p>\n<p><strong>Sort de domaine</strong> <em>@UUID[Compendium.pf2e.spells-srd.Item.ZeftDoh0nFAXBAWY]{Richesse apparente}</em>; <strong>Sort de domaine avancé</strong> <em>@UUID[Compendium.pf2e.spells-srd.Item.APTMURAW1N0Wpk4w]{Métaux précieux}</em></p>\n<hr />\n<p><strong>Dieux</strong> @UUID[Compendium.pf2e.deities.Item.d56paSkcwvll2OhR]{Abadar}, @UUID[Compendium.pf2e.deities.Item.wkDOeK7ENz1ra8IC]{Besmara}, @UUID[Compendium.pf2e.deities.Item.6mgCX7lvKtaEYoa9]{Panthéon nain}, @UUID[Compendium.pf2e.deities.Item.mm1j6UbHqFCI8fwB]{Érastil}, @UUID[Compendium.pf2e.deities.Item.IXLzDSMGndFb5rGY]{Falayna}, @UUID[Compendium.pf2e.deities.Item.QlDnoOwf0PppymTn]{Hanspur}, @UUID[Compendium.pf2e.deities.Item.WvoMr86bSSYxXKtI]{Hastur}, @UUID[Compendium.pf2e.deities.Item.AIcDyoff265z9285]{Kofusachi}, @UUID[Compendium.pf2e.deities.Item.sNjPI1iaS8Z43YJf]{Mammon}, @UUID[Compendium.pf2e.deities.Item.Mv6uTJLh3VGEoGLH]{Nivi Rhomboéblouissante}, @UUID[Compendium.pf2e.deities.Item.GX6PF9ifR47Xyjg9]{Norgorber}, @UUID[Compendium.pf2e.deities.Item.u3YfcJh1C4w6n75j]{Raumya}, @UUID[Compendium.pf2e.deities.Item.1NxkZf6ndijKeufX]{Saïrazul}, @UUID[Compendium.pf2e.deities.Item.PFp4Sdp2TDDKD62l]{Thamir}</p>"
        },
        "Water Domain": {
            "name": "Eau (Water Domain)",
            "description": "<p>Vous contrôlez l'eau et les plans d'eau.</p>\n<p><strong>Sort de domaine</strong> <em>@UUID[Compendium.pf2e.spells-srd.Item.iAnpxrLaBU4V6Sej]{Raz-de-marée}</em>; <strong>Sort de domaine avancé</strong> <em>@UUID[Compendium.pf2e.spells-srd.Item.K4LXpaBWrGy6jIER]{Déluge}</em></p>\n<hr />\n<p><strong>Dieux</strong> @UUID[Compendium.pf2e.deities.Item.wkDOeK7ENz1ra8IC]{Besmara}, @UUID[Compendium.pf2e.deities.Item.tcXrtRYCOr2EmgGB]{Charon}, @UUID[Compendium.pf2e.deities.Item.AHX89nhuVhmg8k6w]{Dagon}, @UUID[Compendium.pf2e.deities.Item.XHDlP7o1jNz9851v]{Diomazul}, @UUID[Compendium.pf2e.deities.Item.WOiSJ4IWjaRsSgRO]{Géryon}, @UUID[Compendium.pf2e.deities.Item.RUzMtIQal0drPwQY]{Gogunta}, @UUID[Compendium.pf2e.deities.Item.swwwP7eVmlNuWTb7]{Gozreh}, @UUID[Compendium.pf2e.deities.Item.QlDnoOwf0PppymTn]{Hanspur}, @UUID[Compendium.pf2e.deities.Item.DEKKbg6riAdL2ARf]{Hei Feng}, @UUID[Compendium.pf2e.deities.Item.14GLsVobnZTEmJrs]{Kélizandre}, @UUID[Compendium.pf2e.deities.Item.r6SFB1PzKsagDXff]{Dame Nanbyo}, @UUID[Compendium.pf2e.deities.Item.SCMlQDcoU1QcF3AS]{Lysianassa}, @UUID[Compendium.pf2e.deities.Item.hWTTS0e7J9hJfsp3]{Matravash}, @UUID[Compendium.pf2e.deities.Item.pm8H2DbtrHM01KNV]{Nadéri}, @UUID[Compendium.pf2e.deities.Item.XYJupIPx0GW4s7eu]{Ragadahn}, @UUID[Compendium.pf2e.deities.Item.TvxsVRztDlGcWpcI]{Sobek}, @UUID[Compendium.pf2e.deities.Item.GUmYLD7PGmE2TOx6]{Wadjet}, @UUID[Compendium.pf2e.deities.Item.YXmeBdOZfWgUljW1]{Ylimancha}</p>"
        },
        "Sun Domain": {
            "name": "Soleil (Sun Domain)",
            "description": "<p>Vous exploitez le pouvoir du soleil et d'autres sources de lumière et vous punissez les morts-vivants.</p>\n<p><strong>Sort de domaine</strong> <em>@UUID[Compendium.pf2e.spells-srd.Item.zul5cBTfr7NXHBZf]{Éclair éblouissant}</em>; <strong>Sort de domaine anvancé</strong> <em>@UUID[Compendium.pf2e.spells-srd.Item.8XuNn0h0rHE24m3B]{Luminosité positive}</em></p>\n<hr />\n<p><strong>Dieux</strong> @UUID[Compendium.pf2e.deities.Item.R0DvoLO8WbYIYhb3]{Atréia}, @UUID[Compendium.pf2e.deities.Item.OlVCyRgOaPJji4qt]{Chohar}, @UUID[Compendium.pf2e.deities.Item.TpAMy8tb5LrRgvqN]{Hathor}, @UUID[Compendium.pf2e.deities.Item.rRuxBgC58PxrLzRv]{Horus}, @UUID[Compendium.pf2e.deities.Item.aLCfEgt48SRUHnMC]{Jaïdi}, @UUID[Compendium.pf2e.deities.Item.ub0PJ5QkrdoGzzb2]{Luhar}, @UUID[Compendium.pf2e.deities.Item.SAuFz101iP6VVwvw]{Nurgal}, @UUID[Compendium.pf2e.deities.Item.woDEgBs1MznhzpJ4]{Râ}, @UUID[Compendium.pf2e.deities.Item.BNycwu3I21dTh4D9]{Sarenrae}, @UUID[Compendium.pf2e.deities.Item.s9opv94lGDRKnw6W]{Shizuru}, @UUID[Compendium.pf2e.deities.Item.97Qe42wJN5EVUS14]{Sturovenen}, @UUID[Compendium.pf2e.deities.Item.VG51y4FbTLdeGHZB]{Le chemin des cieux}, @UUID[Compendium.pf2e.deities.Item.6nq25AjImkT5GxDT]{Le rayon prismatique}, @UUID[Compendium.pf2e.deities.Item.0R2BjVb7d9tYCIbk]{Tlehar}, @UUID[Compendium.pf2e.deities.Item.g1AVEGi8QibhS007]{Walkena}</p>"
        },
        "Perfection Domain": {
            "name": "Perfection (Perfection Domain)",
            "description": "<p>Vous vous efforcez de perfectionner votre esprit, votre corps et votre âme.</p>\n<p><strong>Sort de domaine</strong> <em>@UUID[Compendium.pf2e.spells-srd.Item.cDFAQN7Z3es07WSA]{Esprit perfectionné}</em> ; <strong>Sort de domaine avancé</strong> <em>@UUID[Compendium.pf2e.spells-srd.Item.8ifpNZkaxrbs3dBJ]{Forme parfaite}</em></p>\n<hr />\n<p><strong>Deities</strong> @UUID[Compendium.pf2e.deities.Item.KDFujU3Yug6AwCOz]{Arshéa}, @UUID[Compendium.pf2e.deities.Item.soiVh53y9RAeSLEk]{Casandalee}, @UUID[Compendium.pf2e.deities.Item.tcvobm8O84qv0aO5]{Gruhastha}, @UUID[Compendium.pf2e.deities.Item.qqqrbq4uCrelQvgH]{Irori}, @UUID[Compendium.pf2e.deities.Item.65o189p2eUPbqaDK]{Narriseminek}, @UUID[Compendium.pf2e.deities.Item.JgDqFUB1NtQkGmzp]{Otolmens}, @UUID[Compendium.pf2e.deities.Item.WO9UsCY41oTtC2G0]{Piliers de la connaissance}, @UUID[Compendium.pf2e.deities.Item.o9tK1T28LNEVzpFV]{Ragdya}, @UUID[Compendium.pf2e.deities.Item.ra7mnjAZcEuJxI37]{Sheï}, @UUID[Compendium.pf2e.deities.Item.s9opv94lGDRKnw6W]{Shizuru}, @UUID[Compendium.pf2e.deities.Item.JndhOIHnQoMwnsw3]{Le dieu griffu}</p>"
        },
        "Destruction Domain": {
            "name": "Destruction (Destruction Domain)",
            "description": "<p>Vous êtes un canal de dévastation divine.</p>\n<p><strong>Sort de domaine</strong> <em>@UUID[Compendium.pf2e.spells-srd.Item.0H1ozccQGGFLUwFI]{Cri de destruction}</em>; <strong>Sort de domaine avancé</strong> <em>@UUID[Compendium.pf2e.spells-srd.Item.7d4DUTDIlzDa8OvX]{Aura destructrice}</em></p>\n<hr />\n<p><strong>Deities</strong> @UUID[Compendium.pf2e.deities.Item.bLI1JMpI2GXQT5AC]{Abraxas}, @UUID[Compendium.pf2e.deities.Item.pCtJONJlhAugUXaG]{Ahriman}, @UUID[Compendium.pf2e.deities.Item.cHAbE86pto5bvIWo]{Angazhan}, @UUID[Compendium.pf2e.deities.Item.aChBtIDfA59QQ7SN]{Ayrzul}, @UUID[Compendium.pf2e.deities.Item.sILda7I8Ak20Ioj9]{Azathoth}, @UUID[Compendium.pf2e.deities.Item.wkDOeK7ENz1ra8IC]{Besmara}, @UUID[Compendium.pf2e.deities.Item.AHX89nhuVhmg8k6w]{Dagon}, @UUID[Compendium.pf2e.deities.Item.Bzfc5mIUfMxOnQWu]{Dahak}, @UUID[Compendium.pf2e.deities.Item.dcbf3pBSNa2q1Kkq]{Dhalavei}, @UUID[Compendium.pf2e.deities.Item.XHDlP7o1jNz9851v]{Diomazul}, @UUID[Compendium.pf2e.deities.Item.aVyxfqY9GBjTqQul]{Eiseth}, @UUID[Compendium.pf2e.deities.Item.6O4UGWcYERDEugzk]{Fumeiyoshi}, @UUID[Compendium.pf2e.deities.Item.Zi1UARhode3FSFLr]{General Susumu}, @UUID[Compendium.pf2e.deities.Item.88vRw2ZVPax4hhga]{Gorum}, @UUID[Compendium.pf2e.deities.Item.WloVxo6HXJdS4YTt]{Groetus}, @UUID[Compendium.pf2e.deities.Item.DEKKbg6riAdL2ARf]{Hei Feng}, @UUID[Compendium.pf2e.deities.Item.A37XqON6QRPzQhp7]{Hshurha}, @UUID[Compendium.pf2e.deities.Item.KIEgpcmHYtFu1dpg]{Imot}, @UUID[Compendium.pf2e.deities.Item.14GLsVobnZTEmJrs]{Kélizandre}, @UUID[Compendium.pf2e.deities.Item.s81N9hxffmRuy3ik]{Kerkamoth}, @UUID[Compendium.pf2e.deities.Item.JcIf4uwKLxEWdplI]{Kostchtchie}, @UUID[Compendium.pf2e.deities.Item.r6SFB1PzKsagDXff]{Dame Nanbyo}, @UUID[Compendium.pf2e.deities.Item.fTJLgTfEMZreJ19r]{Milani}, @UUID[Compendium.pf2e.deities.Item.g1VxllMjs2YRIJAm]{Moloch}, @UUID[Compendium.pf2e.deities.Item.9EKyWmjLUu42evxC]{Néthys}, @UUID[Compendium.pf2e.deities.Item.SAuFz101iP6VVwvw]{Nurgal}, @UUID[Compendium.pf2e.deities.Item.XYJupIPx0GW4s7eu]{Ragadahn}, @UUID[Compendium.pf2e.deities.Item.GEBaoeiv5CB9h2Bn]{Ragathiel}, @UUID[Compendium.pf2e.deities.Item.Bhxji0kxIbMKqdkw]{Rovagug}, @UUID[Compendium.pf2e.deities.Item.0nQItOlce5ua6Eaf]{Sekhmet}, @UUID[Compendium.pf2e.deities.Item.rDTXcBJ8LyqA2TkL]{Szuriel}, @UUID[Compendium.pf2e.deities.Item.ENzMYuzBZGIujSMx]{Treerazer}, @UUID[Compendium.pf2e.deities.Item.7L9KIqixgseSCY3X]{Ymeri}, @UUID[Compendium.pf2e.deities.Item.8roijlQ03l9rWFFe]{Zevgavizeb}, @UUID[Compendium.pf2e.deities.Item.ZfN7jkK6boU1FuiS]{Zon-Kuthon}</p>"
        },
        "Cold Domain": {
            "name": "Froid (Cold Domain)",
            "description": "<p>Vous contrôlez glace, neige et températures glaciales.</p>\n<p><strong>Sort de domaine</strong> <em>@UUID[Compendium.pf2e.spells-srd.Item.DeNz6eAUlE0IE9U3]{Trait d'hiver}</em> ; <strong>Sort de domaine avancé</strong> <em>@UUID[Compendium.pf2e.spells-srd.Item.wjJW9hWY5CkkMvY5]{Poussière de diamant}</em></p>\n<hr />\n<p><strong>Dieux</strong> @UUID[Compendium.pf2e.deities.Item.uXkMGx0OD896ZQlT]{Alglenweis}, @UUID[Compendium.pf2e.deities.Item.swwwP7eVmlNuWTb7]{Gozreh}, @UUID[Compendium.pf2e.deities.Item.A37XqON6QRPzQhp7]{Hshurha}, @UUID[Compendium.pf2e.deities.Item.JcIf4uwKLxEWdplI]{Kostchtchie}, @UUID[Compendium.pf2e.deities.Item.Vzxm5FyIA40b2OSP]{Pulura}, @UUID[Compendium.pf2e.deities.Item.tb0oADxOoMhyrYRA]{Yamatsumi}</p>"
        },
        "Luck Domain": {
            "name": "Chance (Luck Domain)",
            "description": "<p>Vous avez une chance surnaturelle et restez hors de danger.</p>\n<p><strong>Sort de domaine</strong> <em>@UUID[Compendium.pf2e.spells-srd.Item.Fr2CGvWcgSyLcUi7]{Un peu de chance}</em>; <strong>Sort de domaine avancé</strong> <em>@UUID[Compendium.pf2e.spells-srd.Item.7OwZHalOdRCRnFmZ]{Répit chanceux}</em></p>\n<hr />\n<p><strong>Dieux</strong> @UUID[Compendium.pf2e.deities.Item.eyGEoggFlTEUQmvJ]{Bès}, @UUID[Compendium.pf2e.deities.Item.JgqH3BhuEuA4Zyqs]{Desna}, @UUID[Compendium.pf2e.deities.Item.3ffVxwgtvR1imHm8]{Gendowyn}, @UUID[Compendium.pf2e.deities.Item.K1tzUClsozKcdpIe]{Halcamora}, @UUID[Compendium.pf2e.deities.Item.lSciGZGcbU9PJxQy]{Irez}, @UUID[Compendium.pf2e.deities.Item.AIcDyoff265z9285]{Kofusachi}, @UUID[Compendium.pf2e.deities.Item.MbJ93Nw39h2cBYi5]{Lao Shu Po}, @UUID[Compendium.pf2e.deities.Item.Mv6uTJLh3VGEoGLH]{Nivi Rhomboéblouissante}</p>"
        },
        "Lightning Domain": {
            "name": "Foudre (Lightning Domain)",
            "description": "<p>Vous contrôlez l'électricité, le tonnerre et les tempêtes.</p>\n<p><strong>Domain Spell</strong> <em>@UUID[Compendium.pf2e.spells-srd.Item.g1eY1vN44mgluE33]{Javelot chargé}</em> ; <strong>Sort de domaine avancé</strong> <em>@UUID[Compendium.pf2e.spells-srd.Item.VUwpDY4Z91s9QCg0]{Tempête en bouteille}</em></p>\n<hr />\n<p><strong>Dieux</strong> @UUID[Compendium.pf2e.deities.Item.soiVh53y9RAeSLEk]{Casandalee}, @UUID[Compendium.pf2e.deities.Item.EE8sNM4JraOPN669]{Cernunnos}, @UUID[Compendium.pf2e.deities.Item.yiKle2URZ43KYVKQ]{Chamidu}, @UUID[Compendium.pf2e.deities.Item.swwwP7eVmlNuWTb7]{Gozreh}, @UUID[Compendium.pf2e.deities.Item.DEKKbg6riAdL2ARf]{Hei Feng}, @UUID[Compendium.pf2e.deities.Item.Ij1KRM8ufkEjGnR3]{Ranginori}</p>"
        },
        "Dreams Domain": {
            "name": "Rêves (Dreams Domain)",
            "description": "<p>Vous avez le pouvoir d'entrer dans les rêves et de les manipuler.</p>\n<p><strong>Sort de domaine</strong> <em>@UUID[Compendium.pf2e.spells-srd.Item.BRtKFk0PKfWIlCAB]{Doux rêve}</em>; <strong>Sort de domaine avancé</strong> <em>@UUID[Compendium.pf2e.spells-srd.Item.PztLrElcZfLwRnEq]{Appel du rêveur}</em></p>\n<hr />\n<p><strong>Dieux</strong> @UUID[Compendium.pf2e.deities.Item.JgqH3BhuEuA4Zyqs]{Desna}, @UUID[Compendium.pf2e.deities.Item.VvxEvEKhCGRwrMJp]{Imbrex}, @UUID[Compendium.pf2e.deities.Item.ub0PJ5QkrdoGzzb2]{Luhar}, @UUID[Compendium.pf2e.deities.Item.mebdNVKeKuTmDDHj]{Xhamen-Dor}</p>"
        },
        "Creation Domain": {
            "name": "Création (Creation Domain)",
            "description": "<p>Vos capacités d'artisan et d'artiste sont divines.</p>\n<p><strong>Sort de domaine</strong> <em>@UUID[Compendium.pf2e.spells-srd.Item.xTpp8dHZsNMDm75B]{Avalanche d'art}</em>; <strong>Sort de domaine avancé</strong> <em>@UUID[Compendium.pf2e.spells-srd.Item.eb4FXf62NYArTqek]{Fioritures artistiques}</em></p>\n<hr />\n<p><strong>Dieux</strong> @UUID[Compendium.pf2e.deities.Item.uXkMGx0OD896ZQlT]{Alglenweis}, @UUID[Compendium.pf2e.deities.Item.o8ayCv3LAHWlu0vQ]{Apsu}, @UUID[Compendium.pf2e.deities.Item.uydTiyN5AzhBnQY8]{Ardad Lili}, @UUID[Compendium.pf2e.deities.Item.vEMCpm7iidycRT5D]{Brigh}, @UUID[Compendium.pf2e.deities.Item.soiVh53y9RAeSLEk]{Casandalee}, @UUID[Compendium.pf2e.deities.Item.M3eb94Nd6uXti2IK]{Daikitsu}, @UUID[Compendium.pf2e.deities.Item.AMFkYKUNQ3kCD0ob]{Doloras}, @UUID[Compendium.pf2e.deities.Item.6mgCX7lvKtaEYoa9]{Panthéon nain}, @UUID[Compendium.pf2e.deities.Item.Zw8nhcpRxinoYRSa]{Panthéon elfique}, @UUID[Compendium.pf2e.deities.Item.IXLzDSMGndFb5rGY]{Falayna}, @UUID[Compendium.pf2e.deities.Item.liXIbl7y8www2eAn]{Findeladlara}, @UUID[Compendium.pf2e.deities.Item.fuPTR1laXO6EionS]{Grand-mère araignée}, @UUID[Compendium.pf2e.deities.Item.xu05XGotyT5st56H]{Dame Jingxi}, @UUID[Compendium.pf2e.deities.Item.lUFMwdv1UOyzFhIM]{Likha}, @UUID[Compendium.pf2e.deities.Item.sNjPI1iaS8Z43YJf]{Mammon}, @UUID[Compendium.pf2e.deities.Item.W4QGkdn9V5ACRpkh]{La Monade}, @UUID[Compendium.pf2e.deities.Item.jL1qiVOZBKXETtVD]{Nocticula}, @UUID[Compendium.pf2e.deities.Item.JgDqFUB1NtQkGmzp]{Otolmens}, @UUID[Compendium.pf2e.deities.Item.WO9UsCY41oTtC2G0]{Piliers de la connaissance}, @UUID[Compendium.pf2e.deities.Item.gxwmzxUWBOhdgFSN]{Shélyn}, @UUID[Compendium.pf2e.deities.Item.vnmoAGURp8oWCY6R]{Soralyon}, @UUID[Compendium.pf2e.deities.Item.6nq25AjImkT5GxDT]{Le rayon prismatique}, @UUID[Compendium.pf2e.deities.Item.0R2BjVb7d9tYCIbk]{Tléhar}, @UUID[Compendium.pf2e.deities.Item.sZrdzh0ANQnZGXJb]{Torag}, @UUID[Compendium.pf2e.deities.Item.uYpxTi4byHc5w78R]{Yuelral}</p>"
        },
        "Passion Domain": {
            "name": "Passion (Passion Domain)",
            "description": "<p>Vous éveillez la passion, que ce soit de l'amour ou du désir.</p>\n<p><strong>Sort de domaine</strong> <em>@UUID[Compendium.pf2e.spells-srd.Item.ut9IhJ9jSZSHDUop]{Contact charmeur}</em>; <strong>Sort de domaine avancé</strong> <em>@UUID[Compendium.pf2e.spells-srd.Item.jJphHQlENHFlSElH]{Adoration captivante}</em></p>\n<hr />\n<p><strong>Dieux</strong> @UUID[Compendium.pf2e.deities.Item.uydTiyN5AzhBnQY8]{Ardad Lili}, @UUID[Compendium.pf2e.deities.Item.KDFujU3Yug6AwCOz]{Arshéa}, @UUID[Compendium.pf2e.deities.Item.zRmAXj7FSlrMfDeA]{Bastet}, @UUID[Compendium.pf2e.deities.Item.remyY1BwhEVmBwya]{Bélial}, @UUID[Compendium.pf2e.deities.Item.HD7g8T8ioy1EH3M8]{Bolka}, @UUID[Compendium.pf2e.deities.Item.AlL9GtlTldbqNoVm]{Calistria}, @UUID[Compendium.pf2e.deities.Item.EE8sNM4JraOPN669]{Cernunnos}, @UUID[Compendium.pf2e.deities.Item.TpAMy8tb5LrRgvqN]{Hathor}, @UUID[Compendium.pf2e.deities.Item.EFyDjlH7XjGq7Erd]{Isis}, @UUID[Compendium.pf2e.deities.Item.AIcDyoff265z9285]{Kofusachi}, @UUID[Compendium.pf2e.deities.Item.lUFMwdv1UOyzFhIM]{Likha}, @UUID[Compendium.pf2e.deities.Item.QibpLccM5bLUMopj]{Lymnieris}, @UUID[Compendium.pf2e.deities.Item.pm8H2DbtrHM01KNV]{Nadéri}, @UUID[Compendium.pf2e.deities.Item.gsFaxWHbZmc1moY6]{Nalinivati}, @UUID[Compendium.pf2e.deities.Item.gxwmzxUWBOhdgFSN]{Shélyn}, @UUID[Compendium.pf2e.deities.Item.pVQzTL5elNTxvffu]{La mère verte}, @UUID[Compendium.pf2e.deities.Item.nuqIimigyt986WLE]{Le roi lanterne}, @UUID[Compendium.pf2e.deities.Item.0R2BjVb7d9tYCIbk]{Tléhar}</p>"
        },
        "Repose Domain": {
            "name": "Quiétude (Repose Domain)",
            "description": "<p>Vous allégez les fardeaux mentaux.</p>\n<p><strong>Sort de domaine</strong> <em>@UUID[Compendium.pf2e.spells-srd.Item.cJq5NarY0eOZN74A]{Partage du fardeau}</em>; <strong>Sort de domaine avancé</strong> <em>@UUID[Compendium.pf2e.spells-srd.Item.yY1H5zhO5dHmD8lz]{Fontaine de sérénité}</em></p>\n<hr />\n<p><strong>Dieux</strong> @UUID[Compendium.pf2e.deities.Item.DJ7LDFTtns6YFodT]{Ashava}, @UUID[Compendium.pf2e.deities.Item.RbslST0RZPXj6Eby]{Ashukharma}, @UUID[Compendium.pf2e.deities.Item.AMFkYKUNQ3kCD0ob]{Doloras}, @UUID[Compendium.pf2e.deities.Item.VEyowuhC4FsBnG8c]{Folgrit}, @UUID[Compendium.pf2e.deities.Item.xu05XGotyT5st56H]{Dame Jingxi}, @UUID[Compendium.pf2e.deities.Item.QibpLccM5bLUMopj]{Lymniéris}, @UUID[Compendium.pf2e.deities.Item.BNycwu3I21dTh4D9]{Sarenrae}, @UUID[Compendium.pf2e.deities.Item.gxwmzxUWBOhdgFSN]{Shélyn}, @UUID[Compendium.pf2e.deities.Item.HbuynQRCjGKtbhcC]{Le prince perdu}, @UUID[Compendium.pf2e.deities.Item.aTYy1WHwAZiuei4h]{Tsukiyo}</p>"
        },
        "Star Domain": {
            "name": "Étoiles (Star Domain)",
            "description": "<p>Vous avez autorité sur le pouvoir des étoiles.</p>\n<p><strong>Sort de domaine</strong> <em>@UUID[Compendium.pf2e.spells-srd.Item.Yrek2Yd4k3DPC2zV]{Étoile zénithale}</em>; <strong>Sort de domaine avancé</strong> <em>@UUID[Compendium.pf2e.spells-srd.Item.KG7amdeXWc7MjGXe]{Astérisme}</em></p>\n<hr />\n<p><strong>Dieux</strong> @UUID[Compendium.pf2e.deities.Item.c9NFjRR8gr6CWpjl]{Papillon Noir}, @UUID[Compendium.pf2e.deities.Item.oV5cnlPJQS8JfMIg]{Caravane cosmique}, @UUID[Compendium.pf2e.deities.Item.JgqH3BhuEuA4Zyqs]{Desna}, @UUID[Compendium.pf2e.deities.Item.liXIbl7y8www2eAn]{Findeladlara}, @UUID[Compendium.pf2e.deities.Item.ub0PJ5QkrdoGzzb2]{Luhar}, @UUID[Compendium.pf2e.deities.Item.ArmPZQrl0SFAKvrY]{Maât}, @UUID[Compendium.pf2e.deities.Item.Vzxm5FyIA40b2OSP]{Pulura}, @UUID[Compendium.pf2e.deities.Item.VG51y4FbTLdeGHZB]{Chemin des cieux}</p>"
        },
        "Void Domain": {
            "name": "Vide (Void Domain)",
            "description": "<p>Vous tirez pouvoir du néant.</p>\n<p><strong>Sort de domaine</strong> <em>@UUID[Compendium.pf2e.spells-srd.Item.0cF9HvHzzWSbCFBP]{Vide intérieur}</em> ; <strong>Sort de domaine avancé</strong> <em>@UUID[Compendium.pf2e.spells-srd.Item.iMmexY6ZosLS4I5R]{Porte vers l'au-delà}</em></p>\n<hr />\n<p><strong>Dieux</strong> @UUID[Compendium.pf2e.deities.Item.sILda7I8Ak20Ioj9]{Azathoth}, @UUID[Compendium.pf2e.deities.Item.c9NFjRR8gr6CWpjl]{Papillon noir}, @UUID[Compendium.pf2e.deities.Item.oV5cnlPJQS8JfMIg]{Caravane cosmique}, @UUID[Compendium.pf2e.deities.Item.JgqH3BhuEuA4Zyqs]{Desna}, @UUID[Compendium.pf2e.deities.Item.WloVxo6HXJdS4YTt]{Groétus}, @UUID[Compendium.pf2e.deities.Item.WvoMr86bSSYxXKtI]{Hastur}, @UUID[Compendium.pf2e.deities.Item.s81N9hxffmRuy3ik]{Kerkamoth}, @UUID[Compendium.pf2e.deities.Item.W4QGkdn9V5ACRpkh]{La Monade}, @UUID[Compendium.pf2e.deities.Item.8Oy4qHylOOp79JxD]{Nhimbaloth}, @UUID[Compendium.pf2e.deities.Item.Bhxji0kxIbMKqdkw]{Rovagug}, @UUID[Compendium.pf2e.deities.Item.VG51y4FbTLdeGHZB]{Le chemin des cieux}, @UUID[Compendium.pf2e.deities.Item.SUaGdvQXxSAQAw03]{Yog-Sothoth}, @UUID[Compendium.pf2e.deities.Item.ZfN7jkK6boU1FuiS]{Zon-Kuthon}</p>"
        },
        "Death Domain": {
            "name": "Mort (Death Domain)",
            "description": "<p>Vous pouvez mettre fin à une vie et détruire les morts-vivants.</p>\n<p><strong>Sort de domaine</strong> <em>@UUID[Compendium.pf2e.spells-srd.Item.HG4afO9EOGEU9bZN]{Appel de la mort}</em> ; <strong>Sort de domaine avancé</strong> <em>@UUID[Compendium.pf2e.spells-srd.Item.J5MNC4xq3CHH31qT]{Éradication de la mort-vivance}</em></p>\n<hr />\n<p><strong>Dieux</strong> @UUID[Compendium.pf2e.deities.Item.51kMMWaT6CqpGlGk]{Achaékek},<strong></strong> @UUID[Compendium.pf2e.deities.Item.pCtJONJlhAugUXaG]{Ahriman}, @UUID[Compendium.pf2e.deities.Item.UUcAqU3KeJSMNxGF]{Barzahk}, @UUID[Compendium.pf2e.deities.Item.tcXrtRYCOr2EmgGB]{Charon}, @UUID[Compendium.pf2e.deities.Item.H1VrZ1QX0d2aPXT8]{Dammerich}, @UUID[Compendium.pf2e.deities.Item.QlDnoOwf0PppymTn]{Hanspur}, @UUID[Compendium.pf2e.deities.Item.KIEgpcmHYtFu1dpg]{Imot}, @UUID[Compendium.pf2e.deities.Item.nsiDGdgbAzkTQzOt]{Magrim}, @UUID[Compendium.pf2e.deities.Item.E1dUhoSEf2XfklU2]{Mère Vautour}, @UUID[Compendium.pf2e.deities.Item.pm8H2DbtrHM01KNV]{Nadéri}, @UUID[Compendium.pf2e.deities.Item.hhV2g6aU8jKLEca1]{Narakaas}, @UUID[Compendium.pf2e.deities.Item.GX6PF9ifR47Xyjg9]{Norgorber}, @UUID[Compendium.pf2e.deities.Item.QZD0u1jxwz0kj8uI]{Pharasma}, @UUID[Compendium.pf2e.deities.Item.1xHnoMlCyCV70TnT]{Saloc}, @UUID[Compendium.pf2e.deities.Item.zzhYFcShT9JoE2Mp]{Shax}, @UUID[Compendium.pf2e.deities.Item.83jKKHQPoqVylmrF]{Yaezhing}, @UUID[Compendium.pf2e.deities.Item.LLMTMgARSTlO7S9U]{Zyphus}</p>"
        },
        "Fire Domain": {
            "name": "Feu (Fire Domain)",
            "description": "<p>Vous contrôlez le feu.</p>\n<p><strong>Sort de domaine</strong> <em>@UUID[Compendium.pf2e.spells-srd.Item.oJKZi8OQgmVXHOc0]{Rayon de feu}</em> ; <strong>Sort de domaine avancé</strong> <em>@UUID[Compendium.pf2e.spells-srd.Item.y7Tusv3CieZktkkV]{Barrière de flammes}</em></p>\n<hr />\n<p><strong>Dieux</strong> @UUID[Compendium.pf2e.deities.Item.Xb1N5YfxboJH26Jh]{Angradd}, @UUID[Compendium.pf2e.deities.Item.QRkcFciCOmFoxF1B]{Asmodeus}, @UUID[Compendium.pf2e.deities.Item.R0DvoLO8WbYIYhb3]{Atreia}, @UUID[Compendium.pf2e.deities.Item.vEMCpm7iidycRT5D]{Brigh}, @UUID[Compendium.pf2e.deities.Item.OlVCyRgOaPJji4qt]{Chohar}, @UUID[Compendium.pf2e.deities.Item.Bzfc5mIUfMxOnQWu]{Dahak}, @UUID[Compendium.pf2e.deities.Item.39z55kowQFOUH2v0]{Droskar}, @UUID[Compendium.pf2e.deities.Item.r6SFB1PzKsagDXff]{Lady Nanbyo}, @UUID[Compendium.pf2e.deities.Item.g1VxllMjs2YRIJAm]{Moloch}, @UUID[Compendium.pf2e.deities.Item.SAuFz101iP6VVwvw]{Nurgal}, @UUID[Compendium.pf2e.deities.Item.woDEgBs1MznhzpJ4]{Ra}, @UUID[Compendium.pf2e.deities.Item.GEBaoeiv5CB9h2Bn]{Ragathiel}, @UUID[Compendium.pf2e.deities.Item.BNycwu3I21dTh4D9]{Sarenrae}, @UUID[Compendium.pf2e.deities.Item.rDTXcBJ8LyqA2TkL]{Szuriel}, @UUID[Compendium.pf2e.deities.Item.tb0oADxOoMhyrYRA]{Yamatsumi}, @UUID[Compendium.pf2e.deities.Item.7L9KIqixgseSCY3X]{Ymeri}</p>"
        },
        "Trickery Domain": {
            "name": "Tromperie (Trickery Domain)",
            "description": "<p>Vous dupez les autres et causez des ennuis.</p>\n<p><strong>Sort de domaine</strong> <em>@UUID[Compendium.pf2e.spells-srd.Item.P9bqJsF3WkxGAJKJ]{Déplacement soudain}</em>; <strong>Sort de domaine avancé</strong> <em>@UUID[Compendium.pf2e.spells-srd.Item.ZhLYJlOZzUB1OKoe]{Jumeau du trompeur}</em></p>\n<hr />\n<p><strong>Dieux</strong> @UUID[Compendium.pf2e.deities.Item.51kMMWaT6CqpGlGk]{Achaekek}, @UUID[Compendium.pf2e.deities.Item.pCtJONJlhAugUXaG]{Ahriman}, @UUID[Compendium.pf2e.deities.Item.QRkcFciCOmFoxF1B]{Asmodeus}, @UUID[Compendium.pf2e.deities.Item.9WD0hbUT0IbnuTiM]{Baalzebul}, @UUID[Compendium.pf2e.deities.Item.zRmAXj7FSlrMfDeA]{Bastet}, @UUID[Compendium.pf2e.deities.Item.remyY1BwhEVmBwya]{Bélial}, @UUID[Compendium.pf2e.deities.Item.wkDOeK7ENz1ra8IC]{Besmara}, @UUID[Compendium.pf2e.deities.Item.AlL9GtlTldbqNoVm]{Calistria}, @UUID[Compendium.pf2e.deities.Item.4GO4iT585ynLJnc8]{Chaldira}, @UUID[Compendium.pf2e.deities.Item.dcbf3pBSNa2q1Kkq]{Dhalavei}, @UUID[Compendium.pf2e.deities.Item.39z55kowQFOUH2v0]{Droskar}, @UUID[Compendium.pf2e.deities.Item.Dm8qlzpUj7g82QFv]{Érécura}, @UUID[Compendium.pf2e.deities.Item.fuPTR1laXO6EionS]{Grand-mère araignée}, @UUID[Compendium.pf2e.deities.Item.ItYptsfjV8XvfhOV]{Lahkgya}, @UUID[Compendium.pf2e.deities.Item.aipkJQxP4GBsTaGq]{Lamashtu}, @UUID[Compendium.pf2e.deities.Item.MbJ93Nw39h2cBYi5]{Lao Shu Po}, @UUID[Compendium.pf2e.deities.Item.Af4TSJjutVi9Vdwi]{Mahathallah}, @UUID[Compendium.pf2e.deities.Item.Mv6uTJLh3VGEoGLH]{Nivi Rhomboéblouissante}, @UUID[Compendium.pf2e.deities.Item.GX6PF9ifR47Xyjg9]{Norgorber}, @UUID[Compendium.pf2e.deities.Item.iKgERiIc8rt3fatf]{Nyarlathotep (Celui qui hante les ténèbres))}, @UUID[Compendium.pf2e.deities.Item.3nxIpMGeCvcBIVov]{Nyarlathotep (Le chaos rampant)}, @UUID[Compendium.pf2e.deities.Item.IZcdF1G8ZsnMotaM]{Pazuzu}, @UUID[Compendium.pf2e.deities.Item.zzhYFcShT9JoE2Mp]{Shax}, @UUID[Compendium.pf2e.deities.Item.BrbXGyzCeORNyJT5]{Sifkesh}, @UUID[Compendium.pf2e.deities.Item.iJyhAFmHOLZBvWnJ]{Sivanah}, @UUID[Compendium.pf2e.deities.Item.BLNXYqvzmLgjMq2p]{Sun Wukong}, @UUID[Compendium.pf2e.deities.Item.PFp4Sdp2TDDKD62l]{Thamir}, @UUID[Compendium.pf2e.deities.Item.nuqIimigyt986WLE]{Le roi lanterne}, @UUID[Compendium.pf2e.deities.Item.83jKKHQPoqVylmrF]{Yaezhing}, @UUID[Compendium.pf2e.deities.Item.iEt6idGIEPXY2HzV]{Ydajisk}</p>"
        },
        "Travel Domain": {
            "name": "Voyage (Travel Domain)",
            "description": "<p>Vous avez du pouvoir sur les mouvements et les voyages.</p>\n<p><strong>Sort de Domaine</strong> <em>@UUID[Compendium.pf2e.spells-srd.Item.cOjlzWerBwbPWVkX]{Pieds Agiles}</em>; <strong>Sort de domaine avancé</strong> <em>@UUID[Compendium.pf2e.spells-srd.Item.LrhTFHUtSS9ahogL]{Voyageur en transit}</em></p>\n<hr />\n<p><strong>Dieux</strong> @UUID[Compendium.pf2e.deities.Item.d56paSkcwvll2OhR]{Abadar}, @UUID[Compendium.pf2e.deities.Item.o8ayCv3LAHWlu0vQ]{Apsu}, @UUID[Compendium.pf2e.deities.Item.oiEo6tDP3gICHtfZ]{Barbatos}, @UUID[Compendium.pf2e.deities.Item.vSUz97Y29l1O50bC]{Comte Ranalc}, @UUID[Compendium.pf2e.deities.Item.JgqH3BhuEuA4Zyqs]{Desna}, @UUID[Compendium.pf2e.deities.Item.oyp2E685VsQFKMXi]{Dranngvit}, @UUID[Compendium.pf2e.deities.Item.swwwP7eVmlNuWTb7]{Gozreh}, @UUID[Compendium.pf2e.deities.Item.tcvobm8O84qv0aO5]{Gruhastha}, @UUID[Compendium.pf2e.deities.Item.QlDnoOwf0PppymTn]{Hanspur}, @UUID[Compendium.pf2e.deities.Item.DEKKbg6riAdL2ARf]{Hei Feng}, @UUID[Compendium.pf2e.deities.Item.bF77ydtptI54STl9]{Jaidz}, @UUID[Compendium.pf2e.deities.Item.14GLsVobnZTEmJrs]{Kélizandari}, @UUID[Compendium.pf2e.deities.Item.AIcDyoff265z9285]{Kofusachi}, @UUID[Compendium.pf2e.deities.Item.hWTTS0e7J9hJfsp3]{Matravash}, @UUID[Compendium.pf2e.deities.Item.RzTd9PmgnfHNlFVf]{Ng}, @UUID[Compendium.pf2e.deities.Item.jL1qiVOZBKXETtVD]{Nocticula}, @UUID[Compendium.pf2e.deities.Item.Ij1KRM8ufkEjGnR3]{Ranginori}, @UUID[Compendium.pf2e.deities.Item.VG51y4FbTLdeGHZB]{Le chemin des cieux}, @UUID[Compendium.pf2e.deities.Item.6nq25AjImkT5GxDT]{Le rayon prismatique}, @UUID[Compendium.pf2e.deities.Item.GUmYLD7PGmE2TOx6]{Wadjet}, @UUID[Compendium.pf2e.deities.Item.YXmeBdOZfWgUljW1]{Ylimancha}, @UUID[Compendium.pf2e.deities.Item.SUaGdvQXxSAQAw03]{Yog-Sothoth}</p>"
        },
        "Vigil Domain": {
            "name": "Veille (Vigil Domain)",
            "description": "<p>Vous veillez sur ceux qui vous ont quitté jadis et sur leurs secrets.</p>\n<p><strong>Sort de domaine</strong> <em>@UUID[Compendium.pf2e.spells-srd.Item.RztmhJrLLQWoGVdB]{Mémoire de l'objet}</em>; <strong>Sort de domaine avancé</strong> <em>@UUID[Compendium.pf2e.spells-srd.Item.nrW6lGV4xDMqLS3P]{Remembrance des morts}</em></p>\n<hr />\n<p><strong>Dieux</strong> @UUID[Compendium.pf2e.deities.Item.5YUNikBpJZ596MRD]{Anubis}, @UUID[Compendium.pf2e.deities.Item.UUcAqU3KeJSMNxGF]{Barzahk}, @UUID[Compendium.pf2e.deities.Item.OlVCyRgOaPJji4qt]{Chohar}, @UUID[Compendium.pf2e.deities.Item.H1VrZ1QX0d2aPXT8]{Dammerich}, @UUID[Compendium.pf2e.deities.Item.oyp2E685VsQFKMXi]{Dranngvit}, @UUID[Compendium.pf2e.deities.Item.qqqrbq4uCrelQvgH]{Irori}, @UUID[Compendium.pf2e.deities.Item.V5PbbkZUP9N7kl6h]{Kabriri}, @UUID[Compendium.pf2e.deities.Item.QZD0u1jxwz0kj8uI]{Pharasma}, @UUID[Compendium.pf2e.deities.Item.XYJupIPx0GW4s7eu]{Ragadahn}, @UUID[Compendium.pf2e.deities.Item.s9opv94lGDRKnw6W]{Shizuru}, @UUID[Compendium.pf2e.deities.Item.HbuynQRCjGKtbhcC]{Le prince perdu}, @UUID[Compendium.pf2e.deities.Item.0R2BjVb7d9tYCIbk]{Tléhar}, @UUID[Compendium.pf2e.deities.Item.8wOAwLMgB1HFLo9n]{Winlas}</p>"
        },
        "Zeal Domain": {
            "name": "Zèle (Zeal Domain)",
            "description": "<p>Votre feu intérieur améliore vos capacités de combat.</p>\n<p><strong>Sort de domaine</strong> <em>@UUID[Compendium.pf2e.spells-srd.Item.W37iBXLsY2trJ1rS]{Arme améliorée}</em> ; <strong>Sort de domaine avancé</strong> <em>@UUID[Compendium.pf2e.spells-srd.Item.I8CPe9Pp7GABqOyB]{Zèle au combat}</em></p>\n<hr />\n<p><strong>Dieux</strong> @UUID[Compendium.pf2e.deities.Item.51kMMWaT6CqpGlGk]{Achaékek}, @UUID[Compendium.pf2e.deities.Item.Xb1N5YfxboJH26Jh]{Angradd}, @UUID[Compendium.pf2e.deities.Item.aj4ChTlDcZCmrtJD]{Baphomet}, @UUID[Compendium.pf2e.deities.Item.remyY1BwhEVmBwya]{Bélial}, @UUID[Compendium.pf2e.deities.Item.EE8sNM4JraOPN669]{Cernunnos}, @UUID[Compendium.pf2e.deities.Item.4GO4iT585ynLJnc8]{Chaldira}, @UUID[Compendium.pf2e.deities.Item.OlVCyRgOaPJji4qt]{Chohar}, @UUID[Compendium.pf2e.deities.Item.AHX89nhuVhmg8k6w]{Dagon}, @UUID[Compendium.pf2e.deities.Item.Bzfc5mIUfMxOnQWu]{Dahak}, @UUID[Compendium.pf2e.deities.Item.XHDlP7o1jNz9851v]{Diomazul}, @UUID[Compendium.pf2e.deities.Item.aVyxfqY9GBjTqQul]{Eiseth}, @UUID[Compendium.pf2e.deities.Item.Zi1UARhode3FSFLr]{Général Susumu}, @UUID[Compendium.pf2e.deities.Item.88vRw2ZVPax4hhga]{Gorum}, @UUID[Compendium.pf2e.deities.Item.zlJGKpeLBwajP91o]{Gyronna}, @UUID[Compendium.pf2e.deities.Item.eErEiVmBqltYXFJ6]{Iomédae}, @UUID[Compendium.pf2e.deities.Item.JcIf4uwKLxEWdplI]{Kostchtchie}, @UUID[Compendium.pf2e.deities.Item.r5vooG7NfvA9prJK]{Kurgess}, @UUID[Compendium.pf2e.deities.Item.ub0PJ5QkrdoGzzb2]{Luhar}, @UUID[Compendium.pf2e.deities.Item.fTJLgTfEMZreJ19r]{Milani}, @UUID[Compendium.pf2e.deities.Item.GEBaoeiv5CB9h2Bn]{Ragathiel}, @UUID[Compendium.pf2e.deities.Item.Bhxji0kxIbMKqdkw]{Rovagug}, @UUID[Compendium.pf2e.deities.Item.DFxbPmQLOqcmbPTz]{Tanagaar}, @UUID[Compendium.pf2e.deities.Item.JndhOIHnQoMwnsw3]{Le dieu griffu}, @UUID[Compendium.pf2e.deities.Item.0R2BjVb7d9tYCIbk]{Tlehar}, @UUID[Compendium.pf2e.deities.Item.y93whGnGZjFyw5A0]{Vildéis}, @UUID[Compendium.pf2e.deities.Item.GUmYLD7PGmE2TOx6]{Wadjet}, @UUID[Compendium.pf2e.deities.Item.4bEPoujxhYdUyUOg]{Ydersius}, @UUID[Compendium.pf2e.deities.Item.7L9KIqixgseSCY3X]{Yméri}</p>"
        }
    },
    "mapping": {
        "description": "content"
    }
}